<?xml version="1.0" standalone="no"?>
<!DOCTYPE svg PUBLIC "-//W3C//DTD SVG 1.1//EN" "http://www.w3.org/Graphics/SVG/1.1/DTD/svg11.dtd">
<svg version="1.1" width="1200" height="2134" onload="init(evt)" viewBox="0 0 1200 2134" xmlns="http://www.w3.org/2000/svg" xmlns:xlink="http://www.w3.org/1999/xlink">
<!-- Flame graph stack visualization. See https://github.com/brendangregg/FlameGraph for latest version, and http://www.brendangregg.com/flamegraphs.html for examples. -->
<!-- NOTES:  -->
<defs>
	<linearGradient id="background" y1="0" y2="1" x1="0" x2="0" >
		<stop stop-color="#eeeeee" offset="5%" />
		<stop stop-color="#eeeeb0" offset="95%" />
	</linearGradient>
</defs>
<style type="text/css">
	text { font-family:Verdana; font-size:12px; fill:rgb(0,0,0); }
	#search, #ignorecase { opacity:0.1; cursor:pointer; }
	#search:hover, #search.show, #ignorecase:hover, #ignorecase.show { opacity:1; }
	#subtitle { text-anchor:middle; font-color:rgb(160,160,160); }
	#title { text-anchor:middle; font-size:17px}
	#unzoom { cursor:pointer; }
	#frames > *:hover { stroke:black; stroke-width:0.5; cursor:pointer; }
	.hide { display:none; }
	.parent { opacity:0.5; }
</style>
<script type="text/ecmascript">
<![CDATA[
	"use strict";
	var details, searchbtn, unzoombtn, matchedtxt, svg, searching, currentSearchTerm, ignorecase, ignorecaseBtn;
	function init(evt) {
		details = document.getElementById("details").firstChild;
		searchbtn = document.getElementById("search");
		ignorecaseBtn = document.getElementById("ignorecase");
		unzoombtn = document.getElementById("unzoom");
		matchedtxt = document.getElementById("matched");
		svg = document.getElementsByTagName("svg")[0];
		searching = 0;
		currentSearchTerm = null;
	}

	window.addEventListener("click", function(e) {
		var target = find_group(e.target);
		if (target) {
			if (target.nodeName == "a") {
				if (e.ctrlKey === false) return;
				e.preventDefault();
			}
			if (target.classList.contains("parent")) unzoom();
			zoom(target);
		}
		else if (e.target.id == "unzoom") unzoom();
		else if (e.target.id == "search") search_prompt();
		else if (e.target.id == "ignorecase") toggle_ignorecase();
	}, false)

	// mouse-over for info
	// show
	window.addEventListener("mouseover", function(e) {
		var target = find_group(e.target);
		if (target) details.nodeValue = "Function: " + g_to_text(target);
	}, false)

	// clear
	window.addEventListener("mouseout", function(e) {
		var target = find_group(e.target);
		if (target) details.nodeValue = ' ';
	}, false)

	// ctrl-F for search
	window.addEventListener("keydown",function (e) {
		if (e.keyCode === 114 || (e.ctrlKey && e.keyCode === 70)) {
			e.preventDefault();
			search_prompt();
		}
	}, false)

	// ctrl-I to toggle case-sensitive search
	window.addEventListener("keydown",function (e) {
		if (e.ctrlKey && e.keyCode === 73) {
			e.preventDefault();
			toggle_ignorecase();
		}
	}, false)

	// functions
	function find_child(node, selector) {
		var children = node.querySelectorAll(selector);
		if (children.length) return children[0];
		return;
	}
	function find_group(node) {
		var parent = node.parentElement;
		if (!parent) return;
		if (parent.id == "frames") return node;
		return find_group(parent);
	}
	function orig_save(e, attr, val) {
		if (e.attributes["_orig_" + attr] != undefined) return;
		if (e.attributes[attr] == undefined) return;
		if (val == undefined) val = e.attributes[attr].value;
		e.setAttribute("_orig_" + attr, val);
	}
	function orig_load(e, attr) {
		if (e.attributes["_orig_"+attr] == undefined) return;
		e.attributes[attr].value = e.attributes["_orig_" + attr].value;
		e.removeAttribute("_orig_"+attr);
	}
	function g_to_text(e) {
		var text = find_child(e, "title").firstChild.nodeValue;
		return (text)
	}
	function g_to_func(e) {
		var func = g_to_text(e);
		// if there's any manipulation we want to do to the function
		// name before it's searched, do it here before returning.
		return (func);
	}
	function update_text(e) {
		var r = find_child(e, "rect");
		var t = find_child(e, "text");
		var w = parseFloat(r.attributes.width.value) -3;
		var txt = find_child(e, "title").textContent.replace(/\([^(]*\)$/,"");
		t.attributes.x.value = parseFloat(r.attributes.x.value) + 3;

		// Smaller than this size won't fit anything
		if (w < 2 * 12 * 0.59) {
			t.textContent = "";
			return;
		}

		t.textContent = txt;
		// Fit in full text width
		if (/^ *$/.test(txt) || t.getSubStringLength(0, txt.length) < w)
			return;

		for (var x = txt.length - 2; x > 0; x--) {
			if (t.getSubStringLength(0, x + 2) <= w) {
				t.textContent = txt.substring(0, x) + "..";
				return;
			}
		}
		t.textContent = "";
	}

	// zoom
	function zoom_reset(e) {
		if (e.attributes != undefined) {
			orig_load(e, "x");
			orig_load(e, "width");
		}
		if (e.childNodes == undefined) return;
		for (var i = 0, c = e.childNodes; i < c.length; i++) {
			zoom_reset(c[i]);
		}
	}
	function zoom_child(e, x, ratio) {
		if (e.attributes != undefined) {
			if (e.attributes.x != undefined) {
				orig_save(e, "x");
				e.attributes.x.value = (parseFloat(e.attributes.x.value) - x - 10) * ratio + 10;
				if (e.tagName == "text")
					e.attributes.x.value = find_child(e.parentNode, "rect[x]").attributes.x.value + 3;
			}
			if (e.attributes.width != undefined) {
				orig_save(e, "width");
				e.attributes.width.value = parseFloat(e.attributes.width.value) * ratio;
			}
		}

		if (e.childNodes == undefined) return;
		for (var i = 0, c = e.childNodes; i < c.length; i++) {
			zoom_child(c[i], x - 10, ratio);
		}
	}
	function zoom_parent(e) {
		if (e.attributes) {
			if (e.attributes.x != undefined) {
				orig_save(e, "x");
				e.attributes.x.value = 10;
			}
			if (e.attributes.width != undefined) {
				orig_save(e, "width");
				e.attributes.width.value = parseInt(svg.width.baseVal.value) - (10 * 2);
			}
		}
		if (e.childNodes == undefined) return;
		for (var i = 0, c = e.childNodes; i < c.length; i++) {
			zoom_parent(c[i]);
		}
	}
	function zoom(node) {
		var attr = find_child(node, "rect").attributes;
		var width = parseFloat(attr.width.value);
		var xmin = parseFloat(attr.x.value);
		var xmax = parseFloat(xmin + width);
		var ymin = parseFloat(attr.y.value);
		var ratio = (svg.width.baseVal.value - 2 * 10) / width;

		// XXX: Workaround for JavaScript float issues (fix me)
		var fudge = 0.0001;

		unzoombtn.classList.remove("hide");

		var el = document.getElementById("frames").children;
		for (var i = 0; i < el.length; i++) {
			var e = el[i];
			var a = find_child(e, "rect").attributes;
			var ex = parseFloat(a.x.value);
			var ew = parseFloat(a.width.value);
			var upstack;
			// Is it an ancestor
			if (0 == 0) {
				upstack = parseFloat(a.y.value) > ymin;
			} else {
				upstack = parseFloat(a.y.value) < ymin;
			}
			if (upstack) {
				// Direct ancestor
				if (ex <= xmin && (ex+ew+fudge) >= xmax) {
					e.classList.add("parent");
					zoom_parent(e);
					update_text(e);
				}
				// not in current path
				else
					e.classList.add("hide");
			}
			// Children maybe
			else {
				// no common path
				if (ex < xmin || ex + fudge >= xmax) {
					e.classList.add("hide");
				}
				else {
					zoom_child(e, xmin, ratio);
					update_text(e);
				}
			}
		}
		search();
	}
	function unzoom() {
		unzoombtn.classList.add("hide");
		var el = document.getElementById("frames").children;
		for(var i = 0; i < el.length; i++) {
			el[i].classList.remove("parent");
			el[i].classList.remove("hide");
			zoom_reset(el[i]);
			update_text(el[i]);
		}
		search();
	}

	// search
	function toggle_ignorecase() {
		ignorecase = !ignorecase;
		if (ignorecase) {
			ignorecaseBtn.classList.add("show");
		} else {
			ignorecaseBtn.classList.remove("show");
		}
		reset_search();
		search();
	}
	function reset_search() {
		var el = document.querySelectorAll("#frames rect");
		for (var i = 0; i < el.length; i++) {
			orig_load(el[i], "fill")
		}
	}
	function search_prompt() {
		if (!searching) {
			var term = prompt("Enter a search term (regexp " +
			    "allowed, eg: ^ext4_)"
			    + (ignorecase ? ", ignoring case" : "")
			    + "\nPress Ctrl-i to toggle case sensitivity", "");
			if (term != null) {
				currentSearchTerm = term;
				search();
			}
		} else {
			reset_search();
			searching = 0;
			currentSearchTerm = null;
			searchbtn.classList.remove("show");
			searchbtn.firstChild.nodeValue = "Search"
			matchedtxt.classList.add("hide");
			matchedtxt.firstChild.nodeValue = ""
		}
	}
	function search(term) {
		if (currentSearchTerm === null) return;
		var term = currentSearchTerm;

		var re = new RegExp(term, ignorecase ? 'i' : '');
		var el = document.getElementById("frames").children;
		var matches = new Object();
		var maxwidth = 0;
		for (var i = 0; i < el.length; i++) {
			var e = el[i];
			var func = g_to_func(e);
			var rect = find_child(e, "rect");
			if (func == null || rect == null)
				continue;

			// Save max width. Only works as we have a root frame
			var w = parseFloat(rect.attributes.width.value);
			if (w > maxwidth)
				maxwidth = w;

			if (func.match(re)) {
				// highlight
				var x = parseFloat(rect.attributes.x.value);
				orig_save(rect, "fill");
				rect.attributes.fill.value = "rgb(230,0,230)";

				// remember matches
				if (matches[x] == undefined) {
					matches[x] = w;
				} else {
					if (w > matches[x]) {
						// overwrite with parent
						matches[x] = w;
					}
				}
				searching = 1;
			}
		}
		if (!searching)
			return;

		searchbtn.classList.add("show");
		searchbtn.firstChild.nodeValue = "Reset Search";

		// calculate percent matched, excluding vertical overlap
		var count = 0;
		var lastx = -1;
		var lastw = 0;
		var keys = Array();
		for (k in matches) {
			if (matches.hasOwnProperty(k))
				keys.push(k);
		}
		// sort the matched frames by their x location
		// ascending, then width descending
		keys.sort(function(a, b){
			return a - b;
		});
		// Step through frames saving only the biggest bottom-up frames
		// thanks to the sort order. This relies on the tree property
		// where children are always smaller than their parents.
		var fudge = 0.0001;	// JavaScript floating point
		for (var k in keys) {
			var x = parseFloat(keys[k]);
			var w = matches[keys[k]];
			if (x >= lastx + lastw - fudge) {
				count += w;
				lastx = x;
				lastw = w;
			}
		}
		// display matched percent
		matchedtxt.classList.remove("hide");
		var pct = 100 * count / maxwidth;
		if (pct != 100) pct = pct.toFixed(1)
		matchedtxt.firstChild.nodeValue = "Matched: " + pct + "%";
	}
]]>
</script>
<rect x="0.0" y="0" width="1200.0" height="2134.0" fill="url(#background)"  />
<text id="title" x="600.00" y="24" >Differential Flame Graph (Funcall directly from exec_byte_code - Normal)</text>
<text id="details" x="10.00" y="2117" > </text>
<text id="unzoom" x="10.00" y="24" class="hide">Reset Zoom</text>
<text id="search" x="1090.00" y="24" >Search</text>
<text id="ignorecase" x="1174.00" y="24" >ic</text>
<text id="matched" x="1090.00" y="2117" > </text>
<g id="frames">
<g >
<title>[unknown] (2,521 samples, 0.15%; 0.00%)</title><rect x="830.7" y="485" width="1.8" height="15.0" fill="rgb(255,255,255)" rx="2" ry="2" />
<text  x="833.68" y="495.5" ></text>
</g>
<g >
<title>[unknown] (2,511 samples, 0.15%; 0.00%)</title><rect x="830.7" y="453" width="1.8" height="15.0" fill="rgb(255,255,255)" rx="2" ry="2" />
<text  x="833.68" y="463.5" ></text>
</g>
<g >
<title>[unknown] (2,592 samples, 0.16%; 0.00%)</title><rect x="830.7" y="789" width="1.8" height="15.0" fill="rgb(255,255,255)" rx="2" ry="2" />
<text  x="833.68" y="799.5" ></text>
</g>
<g >
<title>mem_insert.isra.0 (257 samples, 0.02%; -0.01%)</title><rect x="831.0" y="37" width="0.2" height="15.0" fill="rgb(209,209,255)" rx="2" ry="2" />
<text  x="833.99" y="47.5" ></text>
</g>
<g >
<title>make_bignum_bits (178 samples, 0.01%; +0.00%)</title><rect x="850.0" y="2037" width="0.2" height="15.0" fill="rgb(255,209,209)" rx="2" ry="2" />
<text  x="853.04" y="2047.5" ></text>
</g>
<g >
<title>Ftype_of (2,179 samples, 0.13%; +0.07%)</title><rect x="823.1" y="2053" width="1.6" height="15.0" fill="rgb(255,209,209)" rx="2" ry="2" />
<text  x="826.11" y="2063.5" ></text>
</g>
<g >
<title>Ftimes (1,184 samples, 0.07%; -0.00%)</title><rect x="822.2" y="2053" width="0.8" height="15.0" fill="rgb(209,209,255)" rx="2" ry="2" />
<text  x="825.19" y="2063.5" ></text>
</g>
<g >
<title>[unknown] (2,609 samples, 0.16%; 0.00%)</title><rect x="830.7" y="853" width="1.8" height="15.0" fill="rgb(255,255,255)" rx="2" ry="2" />
<text  x="833.68" y="863.5" ></text>
</g>
<g >
<title>[unknown] (3,274 samples, 0.20%; 0.00%)</title><rect x="830.7" y="1829" width="2.3" height="15.0" fill="rgb(255,255,255)" rx="2" ry="2" />
<text  x="833.68" y="1839.5" ></text>
</g>
<g >
<title>[unknown] (2,774 samples, 0.17%; 0.00%)</title><rect x="830.7" y="1349" width="1.9" height="15.0" fill="rgb(255,255,255)" rx="2" ry="2" />
<text  x="833.68" y="1359.5" ></text>
</g>
<g >
<title>Fmemq (892 samples, 0.05%; +0.05%)</title><rect x="77.6" y="2037" width="0.6" height="15.0" fill="rgb(255,209,209)" rx="2" ry="2" />
<text  x="80.59" y="2047.5" ></text>
</g>
<g >
<title>[unknown] (2,640 samples, 0.16%; 0.00%)</title><rect x="830.7" y="949" width="1.8" height="15.0" fill="rgb(255,255,255)" rx="2" ry="2" />
<text  x="833.68" y="959.5" ></text>
</g>
<g >
<title>grow_specpdl (2,671 samples, 0.16%; +0.01%)</title><rect x="1105.2" y="2053" width="1.9" height="15.0" fill="rgb(255,209,209)" rx="2" ry="2" />
<text  x="1108.23" y="2063.5" ></text>
</g>
<g >
<title>[unknown] (2,795 samples, 0.17%; 0.00%)</title><rect x="830.7" y="1413" width="2.0" height="15.0" fill="rgb(255,255,255)" rx="2" ry="2" />
<text  x="833.68" y="1423.5" ></text>
</g>
<g >
<title>[unknown] (2,648 samples, 0.16%; 0.00%)</title><rect x="830.7" y="981" width="1.8" height="15.0" fill="rgb(255,255,255)" rx="2" ry="2" />
<text  x="833.68" y="991.5" ></text>
</g>
<g >
<title>[unknown] (2,567 samples, 0.15%; 0.00%)</title><rect x="830.7" y="693" width="1.8" height="15.0" fill="rgb(255,255,255)" rx="2" ry="2" />
<text  x="833.68" y="703.5" ></text>
</g>
<g >
<title>pdumper_set_marked_impl (6,322 samples, 0.38%; -0.03%)</title><rect x="946.1" y="2037" width="4.5" height="15.0" fill="rgb(209,209,255)" rx="2" ry="2" />
<text  x="949.13" y="2047.5" ></text>
</g>
<g >
<title>[unknown] (2,388 samples, 0.14%; 0.00%)</title><rect x="830.7" y="85" width="1.7" height="15.0" fill="rgb(255,255,255)" rx="2" ry="2" />
<text  x="833.68" y="95.5" ></text>
</g>
<g >
<title>[unknown] (2,508 samples, 0.15%; 0.00%)</title><rect x="830.7" y="437" width="1.7" height="15.0" fill="rgb(255,255,255)" rx="2" ry="2" />
<text  x="833.68" y="447.5" ></text>
</g>
<g >
<title>sweep_floats (1,628 samples, 0.10%; -0.00%)</title><rect x="831.2" y="37" width="1.1" height="15.0" fill="rgb(209,209,255)" rx="2" ry="2" />
<text  x="834.18" y="47.5" ></text>
</g>
<g >
<title>sweep_strings (1,382 samples, 0.08%; -0.01%)</title><rect x="959.5" y="2037" width="1.0" height="15.0" fill="rgb(209,209,255)" rx="2" ry="2" />
<text  x="962.51" y="2047.5" ></text>
</g>
<g >
<title>__gmpn_mul_1_coreisbr (11,397 samples, 0.68%; -0.03%)</title><rect x="998.8" y="2037" width="8.0" height="15.0" fill="rgb(209,209,255)" rx="2" ry="2" />
<text  x="1001.76" y="2047.5" ></text>
</g>
<g >
<title>[unknown] (2,725 samples, 0.16%; 0.00%)</title><rect x="830.7" y="1157" width="1.9" height="15.0" fill="rgb(255,255,255)" rx="2" ry="2" />
<text  x="833.68" y="1167.5" ></text>
</g>
<g >
<title>sweep_strings (2,275 samples, 0.14%; -0.00%)</title><rect x="835.3" y="2021" width="1.6" height="15.0" fill="rgb(209,209,255)" rx="2" ry="2" />
<text  x="838.33" y="2031.5" ></text>
</g>
<g >
<title>[unknown] (4,798 samples, 0.29%; 0.00%)</title><rect x="830.7" y="2021" width="3.4" height="15.0" fill="rgb(255,255,255)" rx="2" ry="2" />
<text  x="833.68" y="2031.5" ></text>
</g>
<g >
<title>[unknown] (3,891 samples, 0.23%; 0.00%)</title><rect x="830.7" y="1925" width="2.7" height="15.0" fill="rgb(255,255,255)" rx="2" ry="2" />
<text  x="833.68" y="1935.5" ></text>
</g>
<g >
<title>mark_maybe_object (220 samples, 0.01%; +0.00%)</title><rect x="1120.1" y="2053" width="0.2" height="15.0" fill="rgb(255,209,209)" rx="2" ry="2" />
<text  x="1123.14" y="2063.5" ></text>
</g>
<g >
<title>allocate_pseudovector (192 samples, 0.01%; +0.01%)</title><rect x="106.8" y="2037" width="0.2" height="15.0" fill="rgb(255,209,209)" rx="2" ry="2" />
<text  x="109.84" y="2047.5" ></text>
</g>
<g >
<title>[unknown] (2,654 samples, 0.16%; 0.00%)</title><rect x="830.7" y="997" width="1.9" height="15.0" fill="rgb(255,255,255)" rx="2" ry="2" />
<text  x="833.68" y="1007.5" ></text>
</g>
<g >
<title>malloc_consolidate (373 samples, 0.02%; -0.00%)</title><rect x="1112.1" y="2053" width="0.2" height="15.0" fill="rgb(209,209,255)" rx="2" ry="2" />
<text  x="1115.07" y="2063.5" ></text>
</g>
<g >
<title>mark_compiled (1,527 samples, 0.09%; -0.01%)</title><rect x="856.2" y="2037" width="1.1" height="15.0" fill="rgb(209,209,255)" rx="2" ry="2" />
<text  x="859.24" y="2047.5" ></text>
</g>
<g >
<title>[unknown] (2,971 samples, 0.18%; 0.00%)</title><rect x="830.7" y="1653" width="2.1" height="15.0" fill="rgb(255,255,255)" rx="2" ry="2" />
<text  x="833.68" y="1663.5" ></text>
</g>
<g >
<title>mark_maybe_pointer (277 samples, 0.02%; +0.00%)</title><rect x="1120.3" y="2053" width="0.2" height="15.0" fill="rgb(255,209,209)" rx="2" ry="2" />
<text  x="1123.29" y="2063.5" ></text>
</g>
<g >
<title>Fmemq (366 samples, 0.02%; -0.02%)</title><rect x="815.9" y="2053" width="0.3" height="15.0" fill="rgb(209,209,255)" rx="2" ry="2" />
<text  x="818.93" y="2063.5" ></text>
</g>
<g >
<title>[unknown] (3,759 samples, 0.23%; 0.00%)</title><rect x="830.7" y="1877" width="2.6" height="15.0" fill="rgb(255,255,255)" rx="2" ry="2" />
<text  x="833.68" y="1887.5" ></text>
</g>
<g >
<title>[unknown] (2,922 samples, 0.17%; 0.00%)</title><rect x="830.7" y="1605" width="2.0" height="15.0" fill="rgb(255,255,255)" rx="2" ry="2" />
<text  x="833.68" y="1615.5" ></text>
</g>
<g >
<title>unlink_chunk.constprop.0 (364 samples, 0.02%; -0.00%)</title><rect x="962.5" y="2037" width="0.3" height="15.0" fill="rgb(209,209,255)" rx="2" ry="2" />
<text  x="965.50" y="2047.5" ></text>
</g>
<g >
<title>[unknown] (2,552 samples, 0.15%; 0.00%)</title><rect x="830.7" y="613" width="1.8" height="15.0" fill="rgb(255,255,255)" rx="2" ry="2" />
<text  x="833.68" y="623.5" ></text>
</g>
<g >
<title>[unknown] (2,346 samples, 0.14%; 0.00%)</title><rect x="830.7" y="53" width="1.6" height="15.0" fill="rgb(255,255,255)" rx="2" ry="2" />
<text  x="833.68" y="63.5" ></text>
</g>
<g >
<title>Flet (739 samples, 0.04%; 0.00%)</title><rect x="15.9" y="1941" width="0.6" height="15.0" fill="rgb(255,255,255)" rx="2" ry="2" />
<text  x="18.93" y="1951.5" ></text>
</g>
<g >
<title>[unknown] (4,274 samples, 0.26%; 0.00%)</title><rect x="830.7" y="1973" width="3.0" height="15.0" fill="rgb(255,255,255)" rx="2" ry="2" />
<text  x="833.68" y="1983.5" ></text>
</g>
<g >
<title>[unknown] (2,765 samples, 0.17%; 0.00%)</title><rect x="830.7" y="1285" width="1.9" height="15.0" fill="rgb(255,255,255)" rx="2" ry="2" />
<text  x="833.68" y="1295.5" ></text>
</g>
<g >
<title>__gmpz_clear (154 samples, 0.01%; +0.00%)</title><rect x="837.7" y="2037" width="0.1" height="15.0" fill="rgb(255,209,209)" rx="2" ry="2" />
<text  x="840.71" y="2047.5" ></text>
</g>
<g >
<title>[unknown] (2,601 samples, 0.16%; 0.00%)</title><rect x="830.7" y="821" width="1.8" height="15.0" fill="rgb(255,255,255)" rx="2" ry="2" />
<text  x="833.68" y="831.5" ></text>
</g>
<g >
<title>[unknown] (4,195 samples, 0.25%; 0.00%)</title><rect x="830.7" y="1957" width="2.9" height="15.0" fill="rgb(255,255,255)" rx="2" ry="2" />
<text  x="833.68" y="1967.5" ></text>
</g>
<g >
<title>[unknown] (3,016 samples, 0.18%; 0.00%)</title><rect x="830.7" y="1797" width="2.1" height="15.0" fill="rgb(255,255,255)" rx="2" ry="2" />
<text  x="833.68" y="1807.5" ></text>
</g>
<g >
<title>[unknown] (2,537 samples, 0.15%; 0.00%)</title><rect x="830.7" y="565" width="1.8" height="15.0" fill="rgb(255,255,255)" rx="2" ry="2" />
<text  x="833.68" y="575.5" ></text>
</g>
<g >
<title>live_vector_holding.isra.0 (153 samples, 0.01%; +0.00%)</title><rect x="849.8" y="2037" width="0.1" height="15.0" fill="rgb(255,209,209)" rx="2" ry="2" />
<text  x="852.81" y="2047.5" ></text>
</g>
<g >
<title>maybe_quit (507 samples, 0.03%; -0.00%)</title><rect x="1179.6" y="2053" width="0.3" height="15.0" fill="rgb(209,209,255)" rx="2" ry="2" />
<text  x="1182.58" y="2063.5" ></text>
</g>
<g >
<title>[unknown] (2,766 samples, 0.17%; 0.00%)</title><rect x="830.7" y="1301" width="1.9" height="15.0" fill="rgb(255,255,255)" rx="2" ry="2" />
<text  x="833.68" y="1311.5" ></text>
</g>
<g >
<title>[unknown] (2,848 samples, 0.17%; 0.00%)</title><rect x="830.7" y="1589" width="2.0" height="15.0" fill="rgb(255,255,255)" rx="2" ry="2" />
<text  x="833.68" y="1599.5" ></text>
</g>
<g >
<title>[unknown] (2,983 samples, 0.18%; 0.00%)</title><rect x="830.7" y="1685" width="2.1" height="15.0" fill="rgb(255,255,255)" rx="2" ry="2" />
<text  x="833.68" y="1695.5" ></text>
</g>
<g >
<title>mapcar1 (3,386 samples, 0.20%; -0.05%)</title><rect x="1112.3" y="2053" width="2.4" height="15.0" fill="rgb(209,209,255)" rx="2" ry="2" />
<text  x="1115.34" y="2063.5" ></text>
</g>
<g >
<title>[unknown] (2,429 samples, 0.15%; 0.00%)</title><rect x="830.7" y="197" width="1.7" height="15.0" fill="rgb(255,255,255)" rx="2" ry="2" />
<text  x="833.68" y="207.5" ></text>
</g>
<g >
<title>[unknown] (2,526 samples, 0.15%; 0.00%)</title><rect x="830.7" y="517" width="1.8" height="15.0" fill="rgb(255,255,255)" rx="2" ry="2" />
<text  x="833.68" y="527.5" ></text>
</g>
<g >
<title>[unknown] (2,541 samples, 0.15%; 0.00%)</title><rect x="830.7" y="581" width="1.8" height="15.0" fill="rgb(255,255,255)" rx="2" ry="2" />
<text  x="833.68" y="591.5" ></text>
</g>
<g >
<title>[unknown] (2,716 samples, 0.16%; 0.00%)</title><rect x="830.7" y="1141" width="1.9" height="15.0" fill="rgb(255,255,255)" rx="2" ry="2" />
<text  x="833.68" y="1151.5" ></text>
</g>
<g >
<title>hash_lookup (340 samples, 0.02%; -0.00%)</title><rect x="1107.1" y="2053" width="0.3" height="15.0" fill="rgb(209,209,255)" rx="2" ry="2" />
<text  x="1110.12" y="2063.5" ></text>
</g>
<g >
<title>arithcompare (53,007 samples, 3.17%; +0.30%)</title><rect x="1007.5" y="2053" width="37.4" height="15.0" fill="rgb(255,208,208)" rx="2" ry="2" />
<text  x="1010.47" y="2063.5" >ari..</text>
</g>
<g >
<title>mem_delete.part.0 (150 samples, 0.01%; +0.01%)</title><rect x="833.0" y="1829" width="0.2" height="15.0" fill="rgb(255,209,209)" rx="2" ry="2" />
<text  x="836.04" y="1839.5" ></text>
</g>
<g >
<title>Feval (746 samples, 0.04%; 0.00%)</title><rect x="15.9" y="2053" width="0.6" height="15.0" fill="rgb(255,255,255)" rx="2" ry="2" />
<text  x="18.93" y="2063.5" ></text>
</g>
<g >
<title>grow_specpdl (10,169 samples, 0.61%; +0.61%)</title><rect x="802.5" y="2037" width="7.2" height="15.0" fill="rgb(255,207,207)" rx="2" ry="2" />
<text  x="805.51" y="2047.5" ></text>
</g>
<g >
<title>eval_sub (743 samples, 0.04%; 0.00%)</title><rect x="15.9" y="2021" width="0.6" height="15.0" fill="rgb(255,255,255)" rx="2" ry="2" />
<text  x="18.93" y="2031.5" ></text>
</g>
<g >
<title>Faref (5,562 samples, 0.33%; +0.03%)</title><rect x="824.7" y="2037" width="3.9" height="15.0" fill="rgb(255,209,209)" rx="2" ry="2" />
<text  x="827.67" y="2047.5" ></text>
</g>
<g >
<title>[unknown] (2,401 samples, 0.14%; 0.00%)</title><rect x="830.7" y="133" width="1.7" height="15.0" fill="rgb(255,255,255)" rx="2" ry="2" />
<text  x="833.68" y="143.5" ></text>
</g>
<g >
<title>exec_byte_code (5,335 samples, 0.32%; +0.26%)</title><rect x="1078.3" y="2053" width="3.7" height="15.0" fill="rgb(255,209,209)" rx="2" ry="2" />
<text  x="1081.26" y="2063.5" ></text>
</g>
<g >
<title>[unknown] (2,645 samples, 0.16%; 0.00%)</title><rect x="830.7" y="965" width="1.8" height="15.0" fill="rgb(255,255,255)" rx="2" ry="2" />
<text  x="833.68" y="975.5" ></text>
</g>
<g >
<title>[unknown] (3,001 samples, 0.18%; 0.00%)</title><rect x="830.7" y="1749" width="2.1" height="15.0" fill="rgb(255,255,255)" rx="2" ry="2" />
<text  x="833.68" y="1759.5" ></text>
</g>
<g >
<title>Faset (2,302 samples, 0.14%; +0.14%)</title><rect x="51.3" y="2037" width="1.6" height="15.0" fill="rgb(255,209,209)" rx="2" ry="2" />
<text  x="54.29" y="2047.5" ></text>
</g>
<g >
<title>[unknown] (2,698 samples, 0.16%; 0.00%)</title><rect x="830.7" y="1093" width="1.9" height="15.0" fill="rgb(255,255,255)" rx="2" ry="2" />
<text  x="833.68" y="1103.5" ></text>
</g>
<g >
<title>[unknown] (3,718 samples, 0.22%; 0.00%)</title><rect x="830.7" y="1861" width="2.6" height="15.0" fill="rgb(255,255,255)" rx="2" ry="2" />
<text  x="833.68" y="1871.5" ></text>
</g>
<g >
<title>[unknown] (2,582 samples, 0.15%; 0.00%)</title><rect x="830.7" y="757" width="1.8" height="15.0" fill="rgb(255,255,255)" rx="2" ry="2" />
<text  x="833.68" y="767.5" ></text>
</g>
<g >
<title>funcall_lambda (29,248 samples, 1.75%; +1.39%)</title><rect x="1084.1" y="2053" width="20.7" height="15.0" fill="rgb(255,204,204)" rx="2" ry="2" />
<text  x="1087.09" y="2063.5" ></text>
</g>
<g >
<title>Ftimes (888 samples, 0.05%; +0.05%)</title><rect x="89.8" y="2037" width="0.6" height="15.0" fill="rgb(255,209,209)" rx="2" ry="2" />
<text  x="92.82" y="2047.5" ></text>
</g>
<g >
<title>[unknown] (2,827 samples, 0.17%; 0.00%)</title><rect x="830.7" y="1525" width="2.0" height="15.0" fill="rgb(255,255,255)" rx="2" ry="2" />
<text  x="833.68" y="1535.5" ></text>
</g>
<g >
<title>[unknown] (2,625 samples, 0.16%; 0.00%)</title><rect x="830.7" y="901" width="1.8" height="15.0" fill="rgb(255,255,255)" rx="2" ry="2" />
<text  x="833.68" y="911.5" ></text>
</g>
<g >
<title>_int_malloc (5,449 samples, 0.33%; -0.01%)</title><rect x="967.3" y="2053" width="3.8" height="15.0" fill="rgb(209,209,255)" rx="2" ry="2" />
<text  x="970.27" y="2063.5" ></text>
</g>
<g >
<title>[unknown] (2,677 samples, 0.16%; 0.00%)</title><rect x="830.7" y="1045" width="1.9" height="15.0" fill="rgb(255,255,255)" rx="2" ry="2" />
<text  x="833.68" y="1055.5" ></text>
</g>
<g >
<title>Ffuncall (34,813 samples, 2.08%; +2.08%)</title><rect x="53.0" y="2037" width="24.6" height="15.0" fill="rgb(255,201,201)" rx="2" ry="2" />
<text  x="55.97" y="2047.5" >F..</text>
</g>
<g >
<title>__gmpz_add (395 samples, 0.02%; +0.00%)</title><rect x="965.8" y="2053" width="0.3" height="15.0" fill="rgb(255,209,209)" rx="2" ry="2" />
<text  x="968.80" y="2063.5" ></text>
</g>
<g >
<title>[unknown] (2,681 samples, 0.16%; 0.00%)</title><rect x="830.7" y="1061" width="1.9" height="15.0" fill="rgb(255,255,255)" rx="2" ry="2" />
<text  x="833.68" y="1071.5" ></text>
</g>
<g >
<title>[unknown] (2,571 samples, 0.15%; 0.00%)</title><rect x="830.7" y="709" width="1.8" height="15.0" fill="rgb(255,255,255)" rx="2" ry="2" />
<text  x="833.68" y="719.5" ></text>
</g>
<g >
<title>[unknown] (2,730 samples, 0.16%; 0.00%)</title><rect x="830.7" y="1173" width="1.9" height="15.0" fill="rgb(255,255,255)" rx="2" ry="2" />
<text  x="833.68" y="1183.5" ></text>
</g>
<g >
<title>float_arith_driver (2,915 samples, 0.17%; +0.02%)</title><rect x="1082.0" y="2053" width="2.1" height="15.0" fill="rgb(255,209,209)" rx="2" ry="2" />
<text  x="1085.03" y="2063.5" ></text>
</g>
<g >
<title>call1 (1,730 samples, 0.10%; +0.01%)</title><rect x="1044.9" y="2053" width="1.3" height="15.0" fill="rgb(255,209,209)" rx="2" ry="2" />
<text  x="1047.93" y="2063.5" ></text>
</g>
<g >
<title>[unknown] (2,615 samples, 0.16%; 0.00%)</title><rect x="830.7" y="869" width="1.8" height="15.0" fill="rgb(255,255,255)" rx="2" ry="2" />
<text  x="833.68" y="879.5" ></text>
</g>
<g >
<title>[unknown] (2,632 samples, 0.16%; 0.00%)</title><rect x="830.7" y="933" width="1.8" height="15.0" fill="rgb(255,255,255)" rx="2" ry="2" />
<text  x="833.68" y="943.5" ></text>
</g>
<g >
<title>mark_char_table (7,069 samples, 0.42%; -0.06%)</title><rect x="1114.7" y="2053" width="5.0" height="15.0" fill="rgb(209,209,255)" rx="2" ry="2" />
<text  x="1117.73" y="2063.5" ></text>
</g>
<g >
<title>funcall_subr (1,058 samples, 0.06%; -0.00%)</title><rect x="823.9" y="2037" width="0.8" height="15.0" fill="rgb(209,209,255)" rx="2" ry="2" />
<text  x="826.90" y="2047.5" ></text>
</g>
<g >
<title>realloc (212 samples, 0.01%; +0.00%)</title><rect x="833.5" y="1941" width="0.1" height="15.0" fill="rgb(255,209,209)" rx="2" ry="2" />
<text  x="836.49" y="1951.5" ></text>
</g>
<g >
<title>[unknown] (2,532 samples, 0.15%; 0.00%)</title><rect x="830.7" y="549" width="1.8" height="15.0" fill="rgb(255,255,255)" rx="2" ry="2" />
<text  x="833.68" y="559.5" ></text>
</g>
<g >
<title>pdumper_marked_p_impl (9,457 samples, 0.57%; +0.02%)</title><rect x="1180.2" y="2053" width="6.6" height="15.0" fill="rgb(255,209,209)" rx="2" ry="2" />
<text  x="1183.15" y="2063.5" ></text>
</g>
<g >
<title>[unknown] (2,967 samples, 0.18%; 0.00%)</title><rect x="830.7" y="1637" width="2.1" height="15.0" fill="rgb(255,255,255)" rx="2" ry="2" />
<text  x="833.68" y="1647.5" ></text>
</g>
<g >
<title>[unknown] (2,558 samples, 0.15%; 0.00%)</title><rect x="830.7" y="629" width="1.8" height="15.0" fill="rgb(255,255,255)" rx="2" ry="2" />
<text  x="833.68" y="639.5" ></text>
</g>
<g >
<title>sweep_weak_table (237 samples, 0.01%; +0.00%)</title><rect x="1189.1" y="2053" width="0.1" height="15.0" fill="rgb(255,209,209)" rx="2" ry="2" />
<text  x="1192.08" y="2063.5" ></text>
</g>
<g >
<title>Ffuncall (1,131,522 samples, 67.75%; +2.09%)</title><rect x="16.5" y="2053" width="799.4" height="15.0" fill="rgb(255,201,201)" rx="2" ry="2" />
<text  x="19.46" y="2063.5" >Ffuncall</text>
</g>
<g >
<title>[unknown] (2,665 samples, 0.16%; 0.00%)</title><rect x="830.7" y="1029" width="1.9" height="15.0" fill="rgb(255,255,255)" rx="2" ry="2" />
<text  x="833.68" y="1039.5" ></text>
</g>
<g >
<title>[unknown] (2,503 samples, 0.15%; 0.00%)</title><rect x="830.7" y="405" width="1.7" height="15.0" fill="rgb(255,255,255)" rx="2" ry="2" />
<text  x="833.68" y="415.5" ></text>
</g>
<g >
<title>[unknown] (2,966 samples, 0.18%; 0.00%)</title><rect x="830.7" y="1621" width="2.1" height="15.0" fill="rgb(255,255,255)" rx="2" ry="2" />
<text  x="833.68" y="1631.5" ></text>
</g>
<g >
<title>__gmpz_init (184 samples, 0.01%; -0.00%)</title><rect x="837.9" y="2037" width="0.1" height="15.0" fill="rgb(209,209,255)" rx="2" ry="2" />
<text  x="840.87" y="2047.5" ></text>
</g>
<g >
<title>[unknown] (2,744 samples, 0.16%; 0.00%)</title><rect x="830.7" y="1221" width="1.9" height="15.0" fill="rgb(255,255,255)" rx="2" ry="2" />
<text  x="833.68" y="1231.5" ></text>
</g>
<g >
<title>sweep_conses (10,649 samples, 0.64%; -0.03%)</title><rect x="951.8" y="2037" width="7.5" height="15.0" fill="rgb(209,209,255)" rx="2" ry="2" />
<text  x="954.80" y="2047.5" ></text>
</g>
<g >
<title>make_float (270 samples, 0.02%; +0.02%)</title><rect x="1107.6" y="2053" width="0.2" height="15.0" fill="rgb(255,209,209)" rx="2" ry="2" />
<text  x="1110.60" y="2063.5" ></text>
</g>
<g >
<title>[unknown] (2,416 samples, 0.14%; 0.00%)</title><rect x="830.7" y="181" width="1.7" height="15.0" fill="rgb(255,255,255)" rx="2" ry="2" />
<text  x="833.68" y="191.5" ></text>
</g>
<g >
<title>funcall_subr (154 samples, 0.01%; -0.00%)</title><rect x="821.8" y="2037" width="0.1" height="15.0" fill="rgb(209,209,255)" rx="2" ry="2" />
<text  x="824.83" y="2047.5" ></text>
</g>
<g >
<title>mark_vectorlike (5,815 samples, 0.35%; +0.02%)</title><rect x="1175.5" y="2053" width="4.1" height="15.0" fill="rgb(255,209,209)" rx="2" ry="2" />
<text  x="1178.47" y="2063.5" ></text>
</g>
<g >
<title>sweep_conses (1,425 samples, 0.09%; +0.00%)</title><rect x="834.3" y="2021" width="1.0" height="15.0" fill="rgb(255,209,209)" rx="2" ry="2" />
<text  x="837.32" y="2031.5" ></text>
</g>
<g >
<title>pdumper_marked_p_impl (7,234 samples, 0.43%; -0.04%)</title><rect x="941.0" y="2037" width="5.1" height="15.0" fill="rgb(209,209,255)" rx="2" ry="2" />
<text  x="944.02" y="2047.5" ></text>
</g>
<g >
<title>[unknown] (2,390 samples, 0.14%; 0.00%)</title><rect x="830.7" y="101" width="1.7" height="15.0" fill="rgb(255,255,255)" rx="2" ry="2" />
<text  x="833.68" y="111.5" ></text>
</g>
<g >
<title>Fsqrt (229 samples, 0.01%; +0.00%)</title><rect x="821.8" y="2053" width="0.1" height="15.0" fill="rgb(255,209,209)" rx="2" ry="2" />
<text  x="824.77" y="2063.5" ></text>
</g>
<g >
<title>[unknown] (2,776 samples, 0.17%; 0.00%)</title><rect x="830.7" y="1365" width="1.9" height="15.0" fill="rgb(255,255,255)" rx="2" ry="2" />
<text  x="833.68" y="1375.5" ></text>
</g>
<g >
<title>__gmpn_sub_n_coreisbr (958 samples, 0.06%; +0.00%)</title><rect x="965.1" y="2053" width="0.7" height="15.0" fill="rgb(255,209,209)" rx="2" ry="2" />
<text  x="968.12" y="2063.5" ></text>
</g>
<g >
<title>[unknown] (2,771 samples, 0.17%; 0.00%)</title><rect x="830.7" y="1333" width="1.9" height="15.0" fill="rgb(255,255,255)" rx="2" ry="2" />
<text  x="833.68" y="1343.5" ></text>
</g>
<g >
<title>allocate_vectorlike (985 samples, 0.06%; +0.02%)</title><rect x="845.1" y="2037" width="0.7" height="15.0" fill="rgb(255,209,209)" rx="2" ry="2" />
<text  x="848.12" y="2047.5" ></text>
</g>
<g >
<title>__gmpz_tdiv_q (824 samples, 0.05%; +0.00%)</title><rect x="951.2" y="2021" width="0.6" height="15.0" fill="rgb(255,209,209)" rx="2" ry="2" />
<text  x="954.19" y="2031.5" ></text>
</g>
<g >
<title>[unknown] (2,737 samples, 0.16%; 0.00%)</title><rect x="830.7" y="1205" width="1.9" height="15.0" fill="rgb(255,255,255)" rx="2" ry="2" />
<text  x="833.68" y="1215.5" ></text>
</g>
<g >
<title>mem_find (144 samples, 0.01%; -0.00%)</title><rect x="1179.9" y="2053" width="0.1" height="15.0" fill="rgb(209,209,255)" rx="2" ry="2" />
<text  x="1182.94" y="2063.5" ></text>
</g>
<g >
<title>eval_sub (740 samples, 0.04%; -0.00%)</title><rect x="15.9" y="1973" width="0.6" height="15.0" fill="rgb(209,209,255)" rx="2" ry="2" />
<text  x="18.93" y="1983.5" ></text>
</g>
<g >
<title>[unknown] (2,549 samples, 0.15%; 0.00%)</title><rect x="830.7" y="597" width="1.8" height="15.0" fill="rgb(255,255,255)" rx="2" ry="2" />
<text  x="833.68" y="607.5" ></text>
</g>
<g >
<title>[unknown] (2,565 samples, 0.15%; 0.00%)</title><rect x="830.7" y="677" width="1.8" height="15.0" fill="rgb(255,255,255)" rx="2" ry="2" />
<text  x="833.68" y="687.5" ></text>
</g>
<g >
<title>__gmpz_mul (874 samples, 0.05%; -0.01%)</title><rect x="1006.8" y="2037" width="0.6" height="15.0" fill="rgb(209,209,255)" rx="2" ry="2" />
<text  x="1009.81" y="2047.5" ></text>
</g>
<g >
<title>[unknown] (2,438 samples, 0.15%; 0.00%)</title><rect x="830.7" y="229" width="1.7" height="15.0" fill="rgb(255,255,255)" rx="2" ry="2" />
<text  x="833.68" y="239.5" ></text>
</g>
<g >
<title>__gmpn_divrem_2 (439 samples, 0.03%; -0.00%)</title><rect x="837.2" y="2037" width="0.3" height="15.0" fill="rgb(209,209,255)" rx="2" ry="2" />
<text  x="840.24" y="2047.5" ></text>
</g>
<g >
<title>[unknown] (2,788 samples, 0.17%; 0.00%)</title><rect x="830.7" y="1397" width="1.9" height="15.0" fill="rgb(255,255,255)" rx="2" ry="2" />
<text  x="833.68" y="1407.5" ></text>
</g>
<g >
<title>Fcons (871 samples, 0.05%; -0.00%)</title><rect x="15.3" y="2053" width="0.6" height="15.0" fill="rgb(209,209,255)" rx="2" ry="2" />
<text  x="18.30" y="2063.5" ></text>
</g>
<g >
<title>[unknown] (3,799 samples, 0.23%; 0.00%)</title><rect x="830.7" y="1893" width="2.7" height="15.0" fill="rgb(255,255,255)" rx="2" ry="2" />
<text  x="833.68" y="1903.5" ></text>
</g>
<g >
<title>rpl_re_search_2 (150 samples, 0.01%; +0.00%)</title><rect x="1188.9" y="2053" width="0.1" height="15.0" fill="rgb(255,209,209)" rx="2" ry="2" />
<text  x="1191.86" y="2063.5" ></text>
</g>
<g >
<title>__gmpz_sizeinbase (344 samples, 0.02%; +0.02%)</title><rect x="966.7" y="2053" width="0.3" height="15.0" fill="rgb(255,209,209)" rx="2" ry="2" />
<text  x="969.71" y="2063.5" ></text>
</g>
<g >
<title>[unknown] (3,007 samples, 0.18%; 0.00%)</title><rect x="830.7" y="1765" width="2.1" height="15.0" fill="rgb(255,255,255)" rx="2" ry="2" />
<text  x="833.68" y="1775.5" ></text>
</g>
<g >
<title>emacs (1,670,115 samples, 100.00%; -0.01%)</title><rect x="10.0" y="2069" width="1180.0" height="15.0" fill="rgb(209,209,255)" rx="2" ry="2" />
<text  x="13.00" y="2079.5" >emacs</text>
</g>
<g >
<title>Flet (743 samples, 0.04%; 0.00%)</title><rect x="15.9" y="2005" width="0.6" height="15.0" fill="rgb(255,255,255)" rx="2" ry="2" />
<text  x="18.93" y="2015.5" ></text>
</g>
<g >
<title>exec_byte_code (630 samples, 0.04%; -0.00%)</title><rect x="16.0" y="1893" width="0.4" height="15.0" fill="rgb(209,209,255)" rx="2" ry="2" />
<text  x="18.99" y="1903.5" ></text>
</g>
<g >
<title>__gmpn_invert_limb (221 samples, 0.01%; -0.00%)</title><rect x="837.5" y="2037" width="0.2" height="15.0" fill="rgb(209,209,255)" rx="2" ry="2" />
<text  x="840.55" y="2047.5" ></text>
</g>
<g >
<title>__gmpz_realloc (423 samples, 0.03%; -0.01%)</title><rect x="966.2" y="2053" width="0.3" height="15.0" fill="rgb(209,209,255)" rx="2" ry="2" />
<text  x="969.17" y="2063.5" ></text>
</g>
<g >
<title>[unknown] (3,091 samples, 0.19%; 0.00%)</title><rect x="830.7" y="1813" width="2.2" height="15.0" fill="rgb(255,255,255)" rx="2" ry="2" />
<text  x="833.68" y="1823.5" ></text>
</g>
<g >
<title>[unknown] (2,446 samples, 0.15%; 0.00%)</title><rect x="830.7" y="245" width="1.7" height="15.0" fill="rgb(255,255,255)" rx="2" ry="2" />
<text  x="833.68" y="255.5" ></text>
</g>
<g >
<title>mem_delete.part.0 (211 samples, 0.01%; -0.00%)</title><rect x="939.0" y="2037" width="0.1" height="15.0" fill="rgb(209,209,255)" rx="2" ry="2" />
<text  x="941.98" y="2047.5" ></text>
</g>
<g >
<title>arith_driver (35,498 samples, 2.13%; -0.01%)</title><rect x="982.4" y="2053" width="25.1" height="15.0" fill="rgb(209,209,255)" rx="2" ry="2" />
<text  x="985.39" y="2063.5" >a..</text>
</g>
<g >
<title>[unknown] (2,498 samples, 0.15%; 0.00%)</title><rect x="830.7" y="389" width="1.7" height="15.0" fill="rgb(255,255,255)" rx="2" ry="2" />
<text  x="833.68" y="399.5" ></text>
</g>
<g >
<title>eval_sub (741 samples, 0.04%; 0.00%)</title><rect x="15.9" y="1989" width="0.6" height="15.0" fill="rgb(255,255,255)" rx="2" ry="2" />
<text  x="18.93" y="1999.5" ></text>
</g>
<g >
<title>realloc (608 samples, 0.04%; -0.01%)</title><rect x="950.6" y="2037" width="0.5" height="15.0" fill="rgb(209,209,255)" rx="2" ry="2" />
<text  x="953.62" y="2047.5" ></text>
</g>
<g >
<title>[unknown] (2,587 samples, 0.15%; 0.00%)</title><rect x="830.7" y="773" width="1.8" height="15.0" fill="rgb(255,255,255)" rx="2" ry="2" />
<text  x="833.68" y="783.5" ></text>
</g>
<g >
<title>[unknown] (2,688 samples, 0.16%; 0.00%)</title><rect x="830.7" y="1077" width="1.9" height="15.0" fill="rgb(255,255,255)" rx="2" ry="2" />
<text  x="833.68" y="1087.5" ></text>
</g>
<g >
<title>eval_sub (739 samples, 0.04%; 0.00%)</title><rect x="15.9" y="1957" width="0.6" height="15.0" fill="rgb(255,255,255)" rx="2" ry="2" />
<text  x="18.93" y="1967.5" ></text>
</g>
<g >
<title>[unknown] (2,844 samples, 0.17%; 0.00%)</title><rect x="830.7" y="1573" width="2.0" height="15.0" fill="rgb(255,255,255)" rx="2" ry="2" />
<text  x="833.68" y="1583.5" ></text>
</g>
<g >
<title>[unknown] (3,938 samples, 0.24%; 0.00%)</title><rect x="830.7" y="1941" width="2.8" height="15.0" fill="rgb(255,255,255)" rx="2" ry="2" />
<text  x="833.68" y="1951.5" ></text>
</g>
<g >
<title>allocate_vectorlike (15,558 samples, 0.93%; -0.05%)</title><rect x="971.4" y="2053" width="11.0" height="15.0" fill="rgb(209,209,255)" rx="2" ry="2" />
<text  x="974.40" y="2063.5" ></text>
</g>
<g >
<title>[unknown] (2,761 samples, 0.17%; 0.00%)</title><rect x="830.7" y="1269" width="1.9" height="15.0" fill="rgb(255,255,255)" rx="2" ry="2" />
<text  x="833.68" y="1279.5" ></text>
</g>
<g >
<title>__memmove_avx_unaligned_erms (20,596 samples, 1.23%; +0.88%)</title><rect x="92.3" y="2037" width="14.5" height="15.0" fill="rgb(255,206,206)" rx="2" ry="2" />
<text  x="95.29" y="2047.5" ></text>
</g>
<g >
<title>mark_localized_symbol (171 samples, 0.01%; -0.00%)</title><rect x="1120.0" y="2053" width="0.1" height="15.0" fill="rgb(209,209,255)" rx="2" ry="2" />
<text  x="1123.02" y="2063.5" ></text>
</g>
<g >
<title>[unknown] (2,489 samples, 0.15%; 0.00%)</title><rect x="830.7" y="357" width="1.7" height="15.0" fill="rgb(255,255,255)" rx="2" ry="2" />
<text  x="833.68" y="367.5" ></text>
</g>
<g >
<title>Faref (1,314 samples, 0.08%; +0.08%)</title><rect x="50.4" y="2037" width="0.9" height="15.0" fill="rgb(255,209,209)" rx="2" ry="2" />
<text  x="53.36" y="2047.5" ></text>
</g>
<g >
<title>[unknown] (2,604 samples, 0.16%; 0.00%)</title><rect x="830.7" y="837" width="1.8" height="15.0" fill="rgb(255,255,255)" rx="2" ry="2" />
<text  x="833.68" y="847.5" ></text>
</g>
<g >
<title>[unknown] (2,469 samples, 0.15%; 0.00%)</title><rect x="830.7" y="309" width="1.7" height="15.0" fill="rgb(255,255,255)" rx="2" ry="2" />
<text  x="833.68" y="319.5" ></text>
</g>
<g >
<title>__gmpz_set_si (313 samples, 0.02%; -0.00%)</title><rect x="966.5" y="2053" width="0.2" height="15.0" fill="rgb(209,209,255)" rx="2" ry="2" />
<text  x="969.47" y="2063.5" ></text>
</g>
<g >
<title>Fplus (5,141 samples, 0.31%; +0.31%)</title><rect x="78.5" y="2037" width="3.6" height="15.0" fill="rgb(255,208,208)" rx="2" ry="2" />
<text  x="81.47" y="2047.5" ></text>
</g>
<g >
<title>[unknown] (2,560 samples, 0.15%; 0.00%)</title><rect x="830.7" y="645" width="1.8" height="15.0" fill="rgb(255,255,255)" rx="2" ry="2" />
<text  x="833.68" y="655.5" ></text>
</g>
<g >
<title>pdumper_set_marked_impl (2,613 samples, 0.16%; -0.02%)</title><rect x="1186.8" y="2053" width="1.9" height="15.0" fill="rgb(209,209,255)" rx="2" ry="2" />
<text  x="1189.83" y="2063.5" ></text>
</g>
<g >
<title>pdumper_cold_object_p_impl (1,229 samples, 0.07%; +0.02%)</title><rect x="940.0" y="2037" width="0.8" height="15.0" fill="rgb(255,209,209)" rx="2" ry="2" />
<text  x="942.98" y="2047.5" ></text>
</g>
<g >
<title>unlink_chunk.constprop.0 (716 samples, 0.04%; -0.00%)</title><rect x="1189.3" y="2053" width="0.5" height="15.0" fill="rgb(209,209,255)" rx="2" ry="2" />
<text  x="1192.27" y="2063.5" ></text>
</g>
<g >
<title>[unknown] (2,992 samples, 0.18%; 0.00%)</title><rect x="830.7" y="1717" width="2.1" height="15.0" fill="rgb(255,255,255)" rx="2" ry="2" />
<text  x="833.68" y="1727.5" ></text>
</g>
<g >
<title>cfree@GLIBC_2.2.5 (924 samples, 0.06%; -0.00%)</title><rect x="845.9" y="2037" width="0.6" height="15.0" fill="rgb(209,209,255)" rx="2" ry="2" />
<text  x="848.89" y="2047.5" ></text>
</g>
<g >
<title>[unknown] (2,380 samples, 0.14%; 0.00%)</title><rect x="830.7" y="69" width="1.7" height="15.0" fill="rgb(255,255,255)" rx="2" ry="2" />
<text  x="833.68" y="79.5" ></text>
</g>
<g >
<title>[unknown] (2,597 samples, 0.16%; 0.00%)</title><rect x="830.7" y="805" width="1.8" height="15.0" fill="rgb(255,255,255)" rx="2" ry="2" />
<text  x="833.68" y="815.5" ></text>
</g>
<g >
<title>[unknown] (3,013 samples, 0.18%; 0.00%)</title><rect x="830.7" y="1781" width="2.1" height="15.0" fill="rgb(255,255,255)" rx="2" ry="2" />
<text  x="833.68" y="1791.5" ></text>
</g>
<g >
<title>Fplus (6,743 samples, 0.40%; +0.00%)</title><rect x="816.9" y="2053" width="4.8" height="15.0" fill="rgb(255,209,209)" rx="2" ry="2" />
<text  x="819.95" y="2063.5" ></text>
</g>
<g >
<title>make_float (2,798 samples, 0.17%; +0.17%)</title><rect x="809.9" y="2037" width="2.0" height="15.0" fill="rgb(255,209,209)" rx="2" ry="2" />
<text  x="812.87" y="2047.5" ></text>
</g>
<g >
<title>__gmpn_add_n_coreisbr (2,150 samples, 0.13%; -0.00%)</title><rect x="963.6" y="2053" width="1.5" height="15.0" fill="rgb(209,209,255)" rx="2" ry="2" />
<text  x="966.57" y="2063.5" ></text>
</g>
<g >
<title>__gmpn_lshift_coreisbr (149 samples, 0.01%; -0.00%)</title><rect x="951.7" y="2005" width="0.1" height="15.0" fill="rgb(209,209,255)" rx="2" ry="2" />
<text  x="954.67" y="2015.5" ></text>
</g>
<g >
<title>exec_byte_code (965,582 samples, 57.82%; +54.23%)</title><rect x="119.6" y="2037" width="682.3" height="15.0" fill="rgb(255,0,0)" rx="2" ry="2" />
<text  x="122.64" y="2047.5" >exec_byte_code</text>
</g>
<g >
<title>[unknown] (2,459 samples, 0.15%; 0.00%)</title><rect x="830.7" y="277" width="1.7" height="15.0" fill="rgb(255,255,255)" rx="2" ry="2" />
<text  x="833.68" y="287.5" ></text>
</g>
<g >
<title>[unknown] (2,524 samples, 0.15%; 0.00%)</title><rect x="830.7" y="501" width="1.8" height="15.0" fill="rgb(255,255,255)" rx="2" ry="2" />
<text  x="833.68" y="511.5" ></text>
</g>
<g >
<title>Fsetcdr (351 samples, 0.02%; +0.02%)</title><rect x="89.6" y="2037" width="0.2" height="15.0" fill="rgb(255,209,209)" rx="2" ry="2" />
<text  x="92.55" y="2047.5" ></text>
</g>
<g >
<title>Fsetcar (10,516 samples, 0.63%; +0.57%)</title><rect x="82.1" y="2037" width="7.5" height="15.0" fill="rgb(255,207,207)" rx="2" ry="2" />
<text  x="85.12" y="2047.5" ></text>
</g>
<g >
<title>mem_find (244 samples, 0.01%; +0.00%)</title><rect x="830.8" y="37" width="0.2" height="15.0" fill="rgb(255,209,209)" rx="2" ry="2" />
<text  x="833.82" y="47.5" ></text>
</g>
<g >
<title>mark_char_table (8,585 samples, 0.51%; +0.02%)</title><rect x="850.2" y="2037" width="6.0" height="15.0" fill="rgb(255,209,209)" rx="2" ry="2" />
<text  x="853.18" y="2047.5" ></text>
</g>
<g >
<title>main_thread_p (166 samples, 0.01%; -0.00%)</title><rect x="849.9" y="2037" width="0.1" height="15.0" fill="rgb(209,209,255)" rx="2" ry="2" />
<text  x="852.92" y="2047.5" ></text>
</g>
<g >
<title>[unknown] (2,409 samples, 0.14%; 0.00%)</title><rect x="830.7" y="149" width="1.7" height="15.0" fill="rgb(255,255,255)" rx="2" ry="2" />
<text  x="833.68" y="159.5" ></text>
</g>
<g >
<title>[unknown] (2,453 samples, 0.15%; 0.00%)</title><rect x="830.7" y="261" width="1.7" height="15.0" fill="rgb(255,255,255)" rx="2" ry="2" />
<text  x="833.68" y="271.5" ></text>
</g>
<g >
<title>[unknown] (2,393 samples, 0.14%; 0.00%)</title><rect x="830.7" y="117" width="1.7" height="15.0" fill="rgb(255,255,255)" rx="2" ry="2" />
<text  x="833.68" y="127.5" ></text>
</g>
<g >
<title>sweep_symbols (296 samples, 0.02%; -0.00%)</title><rect x="833.9" y="2005" width="0.2" height="15.0" fill="rgb(209,209,255)" rx="2" ry="2" />
<text  x="836.86" y="2015.5" ></text>
</g>
<g >
<title>[unknown] (2,797 samples, 0.17%; 0.00%)</title><rect x="830.7" y="1429" width="2.0" height="15.0" fill="rgb(255,255,255)" rx="2" ry="2" />
<text  x="833.68" y="1439.5" ></text>
</g>
<g >
<title>[unknown] (2,659 samples, 0.16%; 0.00%)</title><rect x="830.7" y="1013" width="1.9" height="15.0" fill="rgb(255,255,255)" rx="2" ry="2" />
<text  x="833.68" y="1023.5" ></text>
</g>
<g >
<title>[unknown] (2,812 samples, 0.17%; 0.00%)</title><rect x="830.7" y="1477" width="2.0" height="15.0" fill="rgb(255,255,255)" rx="2" ry="2" />
<text  x="833.68" y="1487.5" ></text>
</g>
<g >
<title>sweep_symbols (337 samples, 0.02%; -0.01%)</title><rect x="836.9" y="2021" width="0.3" height="15.0" fill="rgb(209,209,255)" rx="2" ry="2" />
<text  x="839.94" y="2031.5" ></text>
</g>
<g >
<title>[unknown] (2,411 samples, 0.14%; 0.00%)</title><rect x="830.7" y="165" width="1.7" height="15.0" fill="rgb(255,255,255)" rx="2" ry="2" />
<text  x="833.68" y="175.5" ></text>
</g>
<g >
<title>[unknown] (2,529 samples, 0.15%; 0.00%)</title><rect x="830.7" y="533" width="1.8" height="15.0" fill="rgb(255,255,255)" rx="2" ry="2" />
<text  x="833.68" y="543.5" ></text>
</g>
<g >
<title>[unknown] (2,707 samples, 0.16%; 0.00%)</title><rect x="830.7" y="1125" width="1.9" height="15.0" fill="rgb(255,255,255)" rx="2" ry="2" />
<text  x="833.68" y="1135.5" ></text>
</g>
<g >
<title>[unknown] (2,735 samples, 0.16%; 0.00%)</title><rect x="830.7" y="1189" width="1.9" height="15.0" fill="rgb(255,255,255)" rx="2" ry="2" />
<text  x="833.68" y="1199.5" ></text>
</g>
<g >
<title>maybe_quit (4,339 samples, 0.26%; +0.26%)</title><rect x="812.0" y="2037" width="3.0" height="15.0" fill="rgb(255,208,208)" rx="2" ry="2" />
<text  x="814.96" y="2047.5" ></text>
</g>
<g >
<title>apply_lambda (739 samples, 0.04%; -0.00%)</title><rect x="15.9" y="1909" width="0.6" height="15.0" fill="rgb(209,209,255)" rx="2" ry="2" />
<text  x="18.93" y="1919.5" ></text>
</g>
<g >
<title>[unknown] (2,783 samples, 0.17%; 0.00%)</title><rect x="830.7" y="1381" width="1.9" height="15.0" fill="rgb(255,255,255)" rx="2" ry="2" />
<text  x="833.68" y="1391.5" ></text>
</g>
<g >
<title>[unknown] (2,575 samples, 0.15%; 0.00%)</title><rect x="830.7" y="725" width="1.8" height="15.0" fill="rgb(255,255,255)" rx="2" ry="2" />
<text  x="833.68" y="735.5" ></text>
</g>
<g >
<title>[unknown] (2,505 samples, 0.15%; 0.00%)</title><rect x="830.7" y="421" width="1.7" height="15.0" fill="rgb(255,255,255)" rx="2" ry="2" />
<text  x="833.68" y="431.5" ></text>
</g>
<g >
<title>[unknown] (2,980 samples, 0.18%; 0.00%)</title><rect x="830.7" y="1669" width="2.1" height="15.0" fill="rgb(255,255,255)" rx="2" ry="2" />
<text  x="833.68" y="1679.5" ></text>
</g>
<g >
<title>Fstring_lessp (353 samples, 0.02%; +0.00%)</title><rect x="821.9" y="2053" width="0.3" height="15.0" fill="rgb(255,209,209)" rx="2" ry="2" />
<text  x="824.94" y="2063.5" ></text>
</g>
<g >
<title>all (1,670,115 samples, 100%)</title><rect x="10.0" y="2085" width="1180.0" height="15.0" fill="rgb(255,255,255)" rx="2" ry="2" />
<text  x="13.00" y="2095.5" ></text>
</g>
<g >
<title>arith_driver (10,305 samples, 0.62%; +0.62%)</title><rect x="107.0" y="2037" width="7.3" height="15.0" fill="rgb(255,207,207)" rx="2" ry="2" />
<text  x="109.98" y="2047.5" ></text>
</g>
<g >
<title>eval_sub (739 samples, 0.04%; 0.00%)</title><rect x="15.9" y="1925" width="0.6" height="15.0" fill="rgb(255,255,255)" rx="2" ry="2" />
<text  x="18.93" y="1935.5" ></text>
</g>
<g >
<title>mark_interval_tree (407 samples, 0.02%; +0.00%)</title><rect x="1119.7" y="2053" width="0.3" height="15.0" fill="rgb(255,209,209)" rx="2" ry="2" />
<text  x="1122.72" y="2063.5" ></text>
</g>
<g >
<title>[unknown] (2,816 samples, 0.17%; 0.00%)</title><rect x="830.7" y="1493" width="2.0" height="15.0" fill="rgb(255,255,255)" rx="2" ry="2" />
<text  x="833.68" y="1503.5" ></text>
</g>
<g >
<title>[unknown] (3,652 samples, 0.22%; 0.00%)</title><rect x="830.7" y="1845" width="2.6" height="15.0" fill="rgb(255,255,255)" rx="2" ry="2" />
<text  x="833.68" y="1855.5" ></text>
</g>
<g >
<title>__gmpz_swap (329 samples, 0.02%; -0.01%)</title><rect x="838.0" y="2037" width="0.3" height="15.0" fill="rgb(209,209,255)" rx="2" ry="2" />
<text  x="841.04" y="2047.5" ></text>
</g>
<g >
<title>[unknown] (196,575 samples, 11.77%; 0.00%)</title><rect x="824.7" y="2053" width="138.9" height="15.0" fill="rgb(255,255,255)" rx="2" ry="2" />
<text  x="827.67" y="2063.5" >[unknown]</text>
</g>
<g >
<title>[unknown] (2,620 samples, 0.16%; 0.00%)</title><rect x="830.7" y="885" width="1.8" height="15.0" fill="rgb(255,255,255)" rx="2" ry="2" />
<text  x="833.68" y="895.5" ></text>
</g>
<g >
<title>make_integer_mpz (154 samples, 0.01%; +0.01%)</title><rect x="811.9" y="2037" width="0.1" height="15.0" fill="rgb(255,209,209)" rx="2" ry="2" />
<text  x="814.85" y="2047.5" ></text>
</g>
<g >
<title>mem_find (1,101 samples, 0.07%; +0.00%)</title><rect x="939.1" y="2037" width="0.8" height="15.0" fill="rgb(255,209,209)" rx="2" ry="2" />
<text  x="942.13" y="2047.5" ></text>
</g>
<g >
<title>[unknown] (2,830 samples, 0.17%; 0.00%)</title><rect x="830.7" y="1541" width="2.0" height="15.0" fill="rgb(255,255,255)" rx="2" ry="2" />
<text  x="833.68" y="1551.5" ></text>
</g>
<g >
<title>emacs_mpz_mul (180 samples, 0.01%; -0.00%)</title><rect x="1078.1" y="2053" width="0.2" height="15.0" fill="rgb(209,209,255)" rx="2" ry="2" />
<text  x="1081.13" y="2063.5" ></text>
</g>
<g >
<title>[unknown] (2,702 samples, 0.16%; 0.00%)</title><rect x="830.7" y="1109" width="1.9" height="15.0" fill="rgb(255,255,255)" rx="2" ry="2" />
<text  x="833.68" y="1119.5" ></text>
</g>
<g >
<title>check_number_coerce_marker (45,125 samples, 2.70%; -0.09%)</title><rect x="1046.2" y="2053" width="31.8" height="15.0" fill="rgb(209,209,255)" rx="2" ry="2" />
<text  x="1049.15" y="2063.5" >ch..</text>
</g>
<g >
<title>sweep_floats (255 samples, 0.02%; +0.00%)</title><rect x="959.3" y="2037" width="0.2" height="15.0" fill="rgb(255,209,209)" rx="2" ry="2" />
<text  x="962.33" y="2047.5" ></text>
</g>
<g >
<title>__gmpn_div_q (310 samples, 0.02%; -0.00%)</title><rect x="951.4" y="2005" width="0.2" height="15.0" fill="rgb(209,209,255)" rx="2" ry="2" />
<text  x="954.41" y="2015.5" ></text>
</g>
<g >
<title>xmalloc (245 samples, 0.01%; -0.00%)</title><rect x="1189.8" y="2053" width="0.2" height="15.0" fill="rgb(209,209,255)" rx="2" ry="2" />
<text  x="1192.79" y="2063.5" ></text>
</g>
<g >
<title>[unknown] (2,578 samples, 0.15%; 0.00%)</title><rect x="830.7" y="741" width="1.8" height="15.0" fill="rgb(255,255,255)" rx="2" ry="2" />
<text  x="833.68" y="751.5" ></text>
</g>
<g >
<title>mark_interval_tree (216 samples, 0.01%; -0.00%)</title><rect x="857.3" y="2037" width="0.2" height="15.0" fill="rgb(209,209,255)" rx="2" ry="2" />
<text  x="860.35" y="2047.5" ></text>
</g>
<g >
<title>mark_maybe_pointer (204 samples, 0.01%; +0.00%)</title><rect x="857.6" y="2037" width="0.1" height="15.0" fill="rgb(255,209,209)" rx="2" ry="2" />
<text  x="860.58" y="2047.5" ></text>
</g>
<g >
<title>Faset (2,859 samples, 0.17%; -0.00%)</title><rect x="828.6" y="2037" width="2.0" height="15.0" fill="rgb(209,209,255)" rx="2" ry="2" />
<text  x="831.60" y="2047.5" ></text>
</g>
<g >
<title>[unknown] (3,845 samples, 0.23%; 0.00%)</title><rect x="830.7" y="1909" width="2.7" height="15.0" fill="rgb(255,255,255)" rx="2" ry="2" />
<text  x="833.68" y="1919.5" ></text>
</g>
<g >
<title>[unknown] (2,562 samples, 0.15%; 0.00%)</title><rect x="830.7" y="661" width="1.8" height="15.0" fill="rgb(255,255,255)" rx="2" ry="2" />
<text  x="833.68" y="671.5" ></text>
</g>
<g >
<title>[unknown] (2,808 samples, 0.17%; 0.00%)</title><rect x="830.7" y="1461" width="2.0" height="15.0" fill="rgb(255,255,255)" rx="2" ry="2" />
<text  x="833.68" y="1471.5" ></text>
</g>
<g >
<title>[unknown] (2,518 samples, 0.15%; 0.00%)</title><rect x="830.7" y="469" width="1.8" height="15.0" fill="rgb(255,255,255)" rx="2" ry="2" />
<text  x="833.68" y="479.5" ></text>
</g>
<g >
<title>make_bignum_bits (209 samples, 0.01%; +0.01%)</title><rect x="809.7" y="2037" width="0.2" height="15.0" fill="rgb(255,209,209)" rx="2" ry="2" />
<text  x="812.73" y="2047.5" ></text>
</g>
<g >
<title>memcpy@plt (1,253 samples, 0.08%; +0.07%)</title><rect x="815.0" y="2037" width="0.9" height="15.0" fill="rgb(255,209,209)" rx="2" ry="2" />
<text  x="818.03" y="2047.5" ></text>
</g>
<g >
<title>[unknown] (2,434 samples, 0.15%; 0.00%)</title><rect x="830.7" y="213" width="1.7" height="15.0" fill="rgb(255,255,255)" rx="2" ry="2" />
<text  x="833.68" y="223.5" ></text>
</g>
<g >
<title>rounding_driver (994 samples, 0.06%; +0.00%)</title><rect x="951.1" y="2037" width="0.7" height="15.0" fill="rgb(255,209,209)" rx="2" ry="2" />
<text  x="954.07" y="2047.5" ></text>
</g>
<g >
<title>[unknown] (4,357 samples, 0.26%; 0.00%)</title><rect x="830.7" y="1989" width="3.1" height="15.0" fill="rgb(255,255,255)" rx="2" ry="2" />
<text  x="833.68" y="1999.5" ></text>
</g>
<g >
<title>arithcompare (7,585 samples, 0.45%; +0.32%)</title><rect x="114.3" y="2037" width="5.3" height="15.0" fill="rgb(255,208,208)" rx="2" ry="2" />
<text  x="117.26" y="2047.5" ></text>
</g>
<g >
<title>[unknown] (2,986 samples, 0.18%; 0.00%)</title><rect x="830.7" y="1701" width="2.1" height="15.0" fill="rgb(255,255,255)" rx="2" ry="2" />
<text  x="833.68" y="1711.5" ></text>
</g>
<g >
<title>Fminus (354 samples, 0.02%; +0.02%)</title><rect x="78.2" y="2037" width="0.3" height="15.0" fill="rgb(255,209,209)" rx="2" ry="2" />
<text  x="81.22" y="2047.5" ></text>
</g>
<g >
<title>mark_object (77,754 samples, 4.66%; -0.05%)</title><rect x="1120.5" y="2053" width="54.9" height="15.0" fill="rgb(209,209,255)" rx="2" ry="2" />
<text  x="1123.49" y="2063.5" >mark_..</text>
</g>
<g >
<title>[unknown] (9,287 samples, 0.56%; 0.00%)</title><rect x="830.7" y="2037" width="6.5" height="15.0" fill="rgb(255,255,255)" rx="2" ry="2" />
<text  x="833.67" y="2047.5" ></text>
</g>
<g >
<title>[unknown] (4,422 samples, 0.26%; 0.00%)</title><rect x="830.7" y="2005" width="3.1" height="15.0" fill="rgb(255,255,255)" rx="2" ry="2" />
<text  x="833.68" y="2015.5" ></text>
</g>
<g >
<title>[unknown] (2,802 samples, 0.17%; 0.00%)</title><rect x="830.7" y="1445" width="2.0" height="15.0" fill="rgb(255,255,255)" rx="2" ry="2" />
<text  x="833.68" y="1455.5" ></text>
</g>
<g >
<title>_int_free (9,331 samples, 0.56%; -0.02%)</title><rect x="838.4" y="2037" width="6.6" height="15.0" fill="rgb(209,209,255)" rx="2" ry="2" />
<text  x="841.41" y="2047.5" ></text>
</g>
<g >
<title>float_arith_driver (919 samples, 0.06%; +0.06%)</title><rect x="801.9" y="2037" width="0.6" height="15.0" fill="rgb(255,209,209)" rx="2" ry="2" />
<text  x="804.86" y="2047.5" ></text>
</g>
<g >
<title>[unknown] (2,484 samples, 0.15%; 0.00%)</title><rect x="830.7" y="341" width="1.7" height="15.0" fill="rgb(255,255,255)" rx="2" ry="2" />
<text  x="833.68" y="351.5" ></text>
</g>
<g >
<title>[unknown] (2,750 samples, 0.16%; 0.00%)</title><rect x="830.7" y="1237" width="1.9" height="15.0" fill="rgb(255,255,255)" rx="2" ry="2" />
<text  x="833.68" y="1247.5" ></text>
</g>
<g >
<title>[unknown] (2,496 samples, 0.15%; 0.00%)</title><rect x="830.7" y="373" width="1.7" height="15.0" fill="rgb(255,255,255)" rx="2" ry="2" />
<text  x="833.68" y="383.5" ></text>
</g>
<g >
<title>lisp_align_malloc (264 samples, 0.02%; -0.00%)</title><rect x="1107.4" y="2053" width="0.2" height="15.0" fill="rgb(209,209,255)" rx="2" ry="2" />
<text  x="1110.41" y="2063.5" ></text>
</g>
<g >
<title>Fminus (1,082 samples, 0.06%; -0.00%)</title><rect x="816.2" y="2053" width="0.7" height="15.0" fill="rgb(209,209,255)" rx="2" ry="2" />
<text  x="819.19" y="2063.5" ></text>
</g>
<g >
<title>mark_object (114,822 samples, 6.88%; -0.09%)</title><rect x="857.7" y="2037" width="81.1" height="15.0" fill="rgb(209,209,255)" rx="2" ry="2" />
<text  x="860.72" y="2047.5" >mark_object</text>
</g>
<g >
<title>vectorlike_nbytes (948 samples, 0.06%; -0.00%)</title><rect x="962.8" y="2037" width="0.6" height="15.0" fill="rgb(209,209,255)" rx="2" ry="2" />
<text  x="965.76" y="2047.5" ></text>
</g>
<g >
<title>[unknown] (2,476 samples, 0.15%; 0.00%)</title><rect x="830.7" y="325" width="1.7" height="15.0" fill="rgb(255,255,255)" rx="2" ry="2" />
<text  x="833.68" y="335.5" ></text>
</g>
<g >
<title>[unknown] (2,998 samples, 0.18%; 0.00%)</title><rect x="830.7" y="1733" width="2.1" height="15.0" fill="rgb(255,255,255)" rx="2" ry="2" />
<text  x="833.68" y="1743.5" ></text>
</g>
<g >
<title>funcall_subr (667 samples, 0.04%; +0.04%)</title><rect x="1104.8" y="2053" width="0.4" height="15.0" fill="rgb(255,209,209)" rx="2" ry="2" />
<text  x="1107.75" y="2063.5" ></text>
</g>
<g >
<title>__gmpz_sizeinbase (2,523 samples, 0.15%; +0.15%)</title><rect x="90.4" y="2037" width="1.8" height="15.0" fill="rgb(255,209,209)" rx="2" ry="2" />
<text  x="93.44" y="2047.5" ></text>
</g>
<g >
<title>[unknown] (2,769 samples, 0.17%; 0.00%)</title><rect x="830.7" y="1317" width="1.9" height="15.0" fill="rgb(255,255,255)" rx="2" ry="2" />
<text  x="833.68" y="1327.5" ></text>
</g>
<g >
<title>pdumper_find_object_type_impl (242 samples, 0.01%; +0.00%)</title><rect x="940.8" y="2037" width="0.2" height="15.0" fill="rgb(255,209,209)" rx="2" ry="2" />
<text  x="943.85" y="2047.5" ></text>
</g>
<g >
<title>malloc (5,989 samples, 0.36%; -0.06%)</title><rect x="1107.8" y="2053" width="4.3" height="15.0" fill="rgb(209,209,255)" rx="2" ry="2" />
<text  x="1110.82" y="2063.5" ></text>
</g>
<g >
<title>allocate_pseudovector (355 samples, 0.02%; -0.01%)</title><rect x="971.1" y="2053" width="0.3" height="15.0" fill="rgb(209,209,255)" rx="2" ry="2" />
<text  x="974.15" y="2063.5" ></text>
</g>
<g >
<title>[unknown] (2,628 samples, 0.16%; 0.00%)</title><rect x="830.7" y="917" width="1.8" height="15.0" fill="rgb(255,255,255)" rx="2" ry="2" />
<text  x="833.68" y="927.5" ></text>
</g>
<g >
<title>[unknown] (2,464 samples, 0.15%; 0.00%)</title><rect x="830.7" y="293" width="1.7" height="15.0" fill="rgb(255,255,255)" rx="2" ry="2" />
<text  x="833.68" y="303.5" ></text>
</g>
<g >
<title>[unknown] (2,756 samples, 0.17%; 0.00%)</title><rect x="830.7" y="1253" width="1.9" height="15.0" fill="rgb(255,255,255)" rx="2" ry="2" />
<text  x="833.68" y="1263.5" ></text>
</g>
<g >
<title>[unknown] (2,839 samples, 0.17%; 0.00%)</title><rect x="830.7" y="1557" width="2.0" height="15.0" fill="rgb(255,255,255)" rx="2" ry="2" />
<text  x="833.68" y="1567.5" ></text>
</g>
<g >
<title>__memset_avx2_unaligned_erms (306 samples, 0.02%; -0.00%)</title><rect x="967.0" y="2053" width="0.2" height="15.0" fill="rgb(209,209,255)" rx="2" ry="2" />
<text  x="970.03" y="2063.5" ></text>
</g>
<g >
<title>eval_sub (745 samples, 0.04%; 0.00%)</title><rect x="15.9" y="2037" width="0.6" height="15.0" fill="rgb(255,255,255)" rx="2" ry="2" />
<text  x="18.93" y="2047.5" ></text>
</g>
<g >
<title>[unknown] (2,823 samples, 0.17%; 0.00%)</title><rect x="830.7" y="1509" width="2.0" height="15.0" fill="rgb(255,255,255)" rx="2" ry="2" />
<text  x="833.68" y="1519.5" ></text>
</g>
<g >
<title>sweep_vectors (2,832 samples, 0.17%; -0.00%)</title><rect x="960.5" y="2037" width="2.0" height="15.0" fill="rgb(209,209,255)" rx="2" ry="2" />
<text  x="963.49" y="2047.5" ></text>
</g>
<g >
<title>list_length (4,483 samples, 0.27%; -0.08%)</title><rect x="846.6" y="2037" width="3.2" height="15.0" fill="rgb(209,209,255)" rx="2" ry="2" />
<text  x="849.64" y="2047.5" ></text>
</g>
</g>
</svg>
