<?xml version="1.0" standalone="no"?>
<!DOCTYPE svg PUBLIC "-//W3C//DTD SVG 1.1//EN" "http://www.w3.org/Graphics/SVG/1.1/DTD/svg11.dtd">
<svg version="1.1" width="1200" height="2134" onload="init(evt)" viewBox="0 0 1200 2134" xmlns="http://www.w3.org/2000/svg" xmlns:xlink="http://www.w3.org/1999/xlink">
<!-- Flame graph stack visualization. See https://github.com/brendangregg/FlameGraph for latest version, and http://www.brendangregg.com/flamegraphs.html for examples. -->
<!-- NOTES:  -->
<defs>
	<linearGradient id="background" y1="0" y2="1" x1="0" x2="0" >
		<stop stop-color="#eeeeee" offset="5%" />
		<stop stop-color="#eeeeb0" offset="95%" />
	</linearGradient>
</defs>
<style type="text/css">
	text { font-family:Verdana; font-size:12px; fill:rgb(0,0,0); }
	#search, #ignorecase { opacity:0.1; cursor:pointer; }
	#search:hover, #search.show, #ignorecase:hover, #ignorecase.show { opacity:1; }
	#subtitle { text-anchor:middle; font-color:rgb(160,160,160); }
	#title { text-anchor:middle; font-size:17px}
	#unzoom { cursor:pointer; }
	#frames > *:hover { stroke:black; stroke-width:0.5; cursor:pointer; }
	.hide { display:none; }
	.parent { opacity:0.5; }
</style>
<script type="text/ecmascript">
<![CDATA[
	"use strict";
	var details, searchbtn, unzoombtn, matchedtxt, svg, searching, currentSearchTerm, ignorecase, ignorecaseBtn;
	function init(evt) {
		details = document.getElementById("details").firstChild;
		searchbtn = document.getElementById("search");
		ignorecaseBtn = document.getElementById("ignorecase");
		unzoombtn = document.getElementById("unzoom");
		matchedtxt = document.getElementById("matched");
		svg = document.getElementsByTagName("svg")[0];
		searching = 0;
		currentSearchTerm = null;
	}

	window.addEventListener("click", function(e) {
		var target = find_group(e.target);
		if (target) {
			if (target.nodeName == "a") {
				if (e.ctrlKey === false) return;
				e.preventDefault();
			}
			if (target.classList.contains("parent")) unzoom();
			zoom(target);
		}
		else if (e.target.id == "unzoom") unzoom();
		else if (e.target.id == "search") search_prompt();
		else if (e.target.id == "ignorecase") toggle_ignorecase();
	}, false)

	// mouse-over for info
	// show
	window.addEventListener("mouseover", function(e) {
		var target = find_group(e.target);
		if (target) details.nodeValue = "Function: " + g_to_text(target);
	}, false)

	// clear
	window.addEventListener("mouseout", function(e) {
		var target = find_group(e.target);
		if (target) details.nodeValue = ' ';
	}, false)

	// ctrl-F for search
	window.addEventListener("keydown",function (e) {
		if (e.keyCode === 114 || (e.ctrlKey && e.keyCode === 70)) {
			e.preventDefault();
			search_prompt();
		}
	}, false)

	// ctrl-I to toggle case-sensitive search
	window.addEventListener("keydown",function (e) {
		if (e.ctrlKey && e.keyCode === 73) {
			e.preventDefault();
			toggle_ignorecase();
		}
	}, false)

	// functions
	function find_child(node, selector) {
		var children = node.querySelectorAll(selector);
		if (children.length) return children[0];
		return;
	}
	function find_group(node) {
		var parent = node.parentElement;
		if (!parent) return;
		if (parent.id == "frames") return node;
		return find_group(parent);
	}
	function orig_save(e, attr, val) {
		if (e.attributes["_orig_" + attr] != undefined) return;
		if (e.attributes[attr] == undefined) return;
		if (val == undefined) val = e.attributes[attr].value;
		e.setAttribute("_orig_" + attr, val);
	}
	function orig_load(e, attr) {
		if (e.attributes["_orig_"+attr] == undefined) return;
		e.attributes[attr].value = e.attributes["_orig_" + attr].value;
		e.removeAttribute("_orig_"+attr);
	}
	function g_to_text(e) {
		var text = find_child(e, "title").firstChild.nodeValue;
		return (text)
	}
	function g_to_func(e) {
		var func = g_to_text(e);
		// if there's any manipulation we want to do to the function
		// name before it's searched, do it here before returning.
		return (func);
	}
	function update_text(e) {
		var r = find_child(e, "rect");
		var t = find_child(e, "text");
		var w = parseFloat(r.attributes.width.value) -3;
		var txt = find_child(e, "title").textContent.replace(/\([^(]*\)$/,"");
		t.attributes.x.value = parseFloat(r.attributes.x.value) + 3;

		// Smaller than this size won't fit anything
		if (w < 2 * 12 * 0.59) {
			t.textContent = "";
			return;
		}

		t.textContent = txt;
		// Fit in full text width
		if (/^ *$/.test(txt) || t.getSubStringLength(0, txt.length) < w)
			return;

		for (var x = txt.length - 2; x > 0; x--) {
			if (t.getSubStringLength(0, x + 2) <= w) {
				t.textContent = txt.substring(0, x) + "..";
				return;
			}
		}
		t.textContent = "";
	}

	// zoom
	function zoom_reset(e) {
		if (e.attributes != undefined) {
			orig_load(e, "x");
			orig_load(e, "width");
		}
		if (e.childNodes == undefined) return;
		for (var i = 0, c = e.childNodes; i < c.length; i++) {
			zoom_reset(c[i]);
		}
	}
	function zoom_child(e, x, ratio) {
		if (e.attributes != undefined) {
			if (e.attributes.x != undefined) {
				orig_save(e, "x");
				e.attributes.x.value = (parseFloat(e.attributes.x.value) - x - 10) * ratio + 10;
				if (e.tagName == "text")
					e.attributes.x.value = find_child(e.parentNode, "rect[x]").attributes.x.value + 3;
			}
			if (e.attributes.width != undefined) {
				orig_save(e, "width");
				e.attributes.width.value = parseFloat(e.attributes.width.value) * ratio;
			}
		}

		if (e.childNodes == undefined) return;
		for (var i = 0, c = e.childNodes; i < c.length; i++) {
			zoom_child(c[i], x - 10, ratio);
		}
	}
	function zoom_parent(e) {
		if (e.attributes) {
			if (e.attributes.x != undefined) {
				orig_save(e, "x");
				e.attributes.x.value = 10;
			}
			if (e.attributes.width != undefined) {
				orig_save(e, "width");
				e.attributes.width.value = parseInt(svg.width.baseVal.value) - (10 * 2);
			}
		}
		if (e.childNodes == undefined) return;
		for (var i = 0, c = e.childNodes; i < c.length; i++) {
			zoom_parent(c[i]);
		}
	}
	function zoom(node) {
		var attr = find_child(node, "rect").attributes;
		var width = parseFloat(attr.width.value);
		var xmin = parseFloat(attr.x.value);
		var xmax = parseFloat(xmin + width);
		var ymin = parseFloat(attr.y.value);
		var ratio = (svg.width.baseVal.value - 2 * 10) / width;

		// XXX: Workaround for JavaScript float issues (fix me)
		var fudge = 0.0001;

		unzoombtn.classList.remove("hide");

		var el = document.getElementById("frames").children;
		for (var i = 0; i < el.length; i++) {
			var e = el[i];
			var a = find_child(e, "rect").attributes;
			var ex = parseFloat(a.x.value);
			var ew = parseFloat(a.width.value);
			var upstack;
			// Is it an ancestor
			if (0 == 0) {
				upstack = parseFloat(a.y.value) > ymin;
			} else {
				upstack = parseFloat(a.y.value) < ymin;
			}
			if (upstack) {
				// Direct ancestor
				if (ex <= xmin && (ex+ew+fudge) >= xmax) {
					e.classList.add("parent");
					zoom_parent(e);
					update_text(e);
				}
				// not in current path
				else
					e.classList.add("hide");
			}
			// Children maybe
			else {
				// no common path
				if (ex < xmin || ex + fudge >= xmax) {
					e.classList.add("hide");
				}
				else {
					zoom_child(e, xmin, ratio);
					update_text(e);
				}
			}
		}
		search();
	}
	function unzoom() {
		unzoombtn.classList.add("hide");
		var el = document.getElementById("frames").children;
		for(var i = 0; i < el.length; i++) {
			el[i].classList.remove("parent");
			el[i].classList.remove("hide");
			zoom_reset(el[i]);
			update_text(el[i]);
		}
		search();
	}

	// search
	function toggle_ignorecase() {
		ignorecase = !ignorecase;
		if (ignorecase) {
			ignorecaseBtn.classList.add("show");
		} else {
			ignorecaseBtn.classList.remove("show");
		}
		reset_search();
		search();
	}
	function reset_search() {
		var el = document.querySelectorAll("#frames rect");
		for (var i = 0; i < el.length; i++) {
			orig_load(el[i], "fill")
		}
	}
	function search_prompt() {
		if (!searching) {
			var term = prompt("Enter a search term (regexp " +
			    "allowed, eg: ^ext4_)"
			    + (ignorecase ? ", ignoring case" : "")
			    + "\nPress Ctrl-i to toggle case sensitivity", "");
			if (term != null) {
				currentSearchTerm = term;
				search();
			}
		} else {
			reset_search();
			searching = 0;
			currentSearchTerm = null;
			searchbtn.classList.remove("show");
			searchbtn.firstChild.nodeValue = "Search"
			matchedtxt.classList.add("hide");
			matchedtxt.firstChild.nodeValue = ""
		}
	}
	function search(term) {
		if (currentSearchTerm === null) return;
		var term = currentSearchTerm;

		var re = new RegExp(term, ignorecase ? 'i' : '');
		var el = document.getElementById("frames").children;
		var matches = new Object();
		var maxwidth = 0;
		for (var i = 0; i < el.length; i++) {
			var e = el[i];
			var func = g_to_func(e);
			var rect = find_child(e, "rect");
			if (func == null || rect == null)
				continue;

			// Save max width. Only works as we have a root frame
			var w = parseFloat(rect.attributes.width.value);
			if (w > maxwidth)
				maxwidth = w;

			if (func.match(re)) {
				// highlight
				var x = parseFloat(rect.attributes.x.value);
				orig_save(rect, "fill");
				rect.attributes.fill.value = "rgb(230,0,230)";

				// remember matches
				if (matches[x] == undefined) {
					matches[x] = w;
				} else {
					if (w > matches[x]) {
						// overwrite with parent
						matches[x] = w;
					}
				}
				searching = 1;
			}
		}
		if (!searching)
			return;

		searchbtn.classList.add("show");
		searchbtn.firstChild.nodeValue = "Reset Search";

		// calculate percent matched, excluding vertical overlap
		var count = 0;
		var lastx = -1;
		var lastw = 0;
		var keys = Array();
		for (k in matches) {
			if (matches.hasOwnProperty(k))
				keys.push(k);
		}
		// sort the matched frames by their x location
		// ascending, then width descending
		keys.sort(function(a, b){
			return a - b;
		});
		// Step through frames saving only the biggest bottom-up frames
		// thanks to the sort order. This relies on the tree property
		// where children are always smaller than their parents.
		var fudge = 0.0001;	// JavaScript floating point
		for (var k in keys) {
			var x = parseFloat(keys[k]);
			var w = matches[keys[k]];
			if (x >= lastx + lastw - fudge) {
				count += w;
				lastx = x;
				lastw = w;
			}
		}
		// display matched percent
		matchedtxt.classList.remove("hide");
		var pct = 100 * count / maxwidth;
		if (pct != 100) pct = pct.toFixed(1)
		matchedtxt.firstChild.nodeValue = "Matched: " + pct + "%";
	}
]]>
</script>
<rect x="0.0" y="0" width="1200.0" height="2134.0" fill="url(#background)"  />
<text id="title" x="600.00" y="24" >Negated Differential Flame Graph (Normal (acba19e24) - UPDATE_OFFSET only before funcall)</text>
<text id="details" x="10.00" y="2117" > </text>
<text id="unzoom" x="10.00" y="24" class="hide">Reset Zoom</text>
<text id="search" x="1090.00" y="24" >Search</text>
<text id="ignorecase" x="1174.00" y="24" >ic</text>
<text id="matched" x="1090.00" y="2117" > </text>
<g id="frames">
<g >
<title>[unknown] (3,282 samples, 0.18%; 0.00%)</title><rect x="848.4" y="1701" width="2.1" height="15.0" fill="rgb(255,255,255)" rx="2" ry="2" />
<text  x="851.40" y="1711.5" ></text>
</g>
<g >
<title>[unknown] (2,589 samples, 0.14%; 0.00%)</title><rect x="848.4" y="293" width="1.7" height="15.0" fill="rgb(255,255,255)" rx="2" ry="2" />
<text  x="851.40" y="303.5" ></text>
</g>
<g >
<title>mem_find (1,168 samples, 0.06%; +0.00%)</title><rect x="951.9" y="2037" width="0.7" height="15.0" fill="rgb(255,209,209)" rx="2" ry="2" />
<text  x="954.88" y="2047.5" ></text>
</g>
<g >
<title>exec_byte_code (751 samples, 0.04%; +0.00%)</title><rect x="15.8" y="1893" width="0.5" height="15.0" fill="rgb(255,209,209)" rx="2" ry="2" />
<text  x="18.84" y="1903.5" ></text>
</g>
<g >
<title>Feval (958 samples, 0.05%; 0.00%)</title><rect x="15.8" y="2053" width="0.6" height="15.0" fill="rgb(255,255,255)" rx="2" ry="2" />
<text  x="18.78" y="2063.5" ></text>
</g>
<g >
<title>[unknown] (2,924 samples, 0.16%; 0.00%)</title><rect x="848.4" y="1237" width="1.9" height="15.0" fill="rgb(255,255,255)" rx="2" ry="2" />
<text  x="851.40" y="1247.5" ></text>
</g>
<g >
<title>[unknown] (2,833 samples, 0.15%; 0.00%)</title><rect x="848.4" y="1077" width="1.8" height="15.0" fill="rgb(255,255,255)" rx="2" ry="2" />
<text  x="851.40" y="1087.5" ></text>
</g>
<g >
<title>[unknown] (2,639 samples, 0.14%; 0.00%)</title><rect x="848.4" y="485" width="1.7" height="15.0" fill="rgb(255,255,255)" rx="2" ry="2" />
<text  x="851.40" y="495.5" ></text>
</g>
<g >
<title>[unknown] (3,007 samples, 0.16%; 0.00%)</title><rect x="848.4" y="1541" width="1.9" height="15.0" fill="rgb(255,255,255)" rx="2" ry="2" />
<text  x="851.40" y="1551.5" ></text>
</g>
<g >
<title>__memset_avx2_unaligned_erms (298 samples, 0.02%; +0.00%)</title><rect x="978.0" y="2053" width="0.2" height="15.0" fill="rgb(255,209,209)" rx="2" ry="2" />
<text  x="980.99" y="2063.5" ></text>
</g>
<g >
<title>[unknown] (3,280 samples, 0.18%; 0.00%)</title><rect x="848.4" y="1685" width="2.1" height="15.0" fill="rgb(255,255,255)" rx="2" ry="2" />
<text  x="851.40" y="1695.5" ></text>
</g>
<g >
<title>[unknown] (4,076 samples, 0.22%; 0.00%)</title><rect x="848.4" y="1909" width="2.6" height="15.0" fill="rgb(255,255,255)" rx="2" ry="2" />
<text  x="851.40" y="1919.5" ></text>
</g>
<g >
<title>Ftimes (881 samples, 0.05%; -0.00%)</title><rect x="82.7" y="2037" width="0.6" height="15.0" fill="rgb(209,209,255)" rx="2" ry="2" />
<text  x="85.71" y="2047.5" ></text>
</g>
<g >
<title>Faref (4,792 samples, 0.26%; +0.01%)</title><rect x="843.3" y="2037" width="3.1" height="15.0" fill="rgb(255,208,208)" rx="2" ry="2" />
<text  x="846.34" y="2047.5" ></text>
</g>
<g >
<title>__gmpz_tdiv_q (878 samples, 0.05%; +0.00%)</title><rect x="963.0" y="2021" width="0.6" height="15.0" fill="rgb(255,209,209)" rx="2" ry="2" />
<text  x="966.00" y="2031.5" ></text>
</g>
<g >
<title>[unknown] (2,724 samples, 0.15%; 0.00%)</title><rect x="848.4" y="789" width="1.7" height="15.0" fill="rgb(255,255,255)" rx="2" ry="2" />
<text  x="851.40" y="799.5" ></text>
</g>
<g >
<title>[unknown] (2,625 samples, 0.14%; 0.00%)</title><rect x="848.4" y="437" width="1.7" height="15.0" fill="rgb(255,255,255)" rx="2" ry="2" />
<text  x="851.40" y="447.5" ></text>
</g>
<g >
<title>[unknown] (2,758 samples, 0.15%; 0.00%)</title><rect x="848.4" y="901" width="1.8" height="15.0" fill="rgb(255,255,255)" rx="2" ry="2" />
<text  x="851.40" y="911.5" ></text>
</g>
<g >
<title>[unknown] (2,700 samples, 0.15%; 0.00%)</title><rect x="848.4" y="693" width="1.7" height="15.0" fill="rgb(255,255,255)" rx="2" ry="2" />
<text  x="851.40" y="703.5" ></text>
</g>
<g >
<title>[unknown] (2,672 samples, 0.14%; 0.00%)</title><rect x="848.4" y="597" width="1.7" height="15.0" fill="rgb(255,255,255)" rx="2" ry="2" />
<text  x="851.40" y="607.5" ></text>
</g>
<g >
<title>[unknown] (4,670 samples, 0.25%; 0.00%)</title><rect x="848.4" y="2005" width="3.0" height="15.0" fill="rgb(255,255,255)" rx="2" ry="2" />
<text  x="851.40" y="2015.5" ></text>
</g>
<g >
<title>Ftype_of (2,680 samples, 0.15%; -0.01%)</title><rect x="841.6" y="2053" width="1.7" height="15.0" fill="rgb(208,208,255)" rx="2" ry="2" />
<text  x="844.62" y="2063.5" ></text>
</g>
<g >
<title>arithcompare (7,933 samples, 0.43%; -0.05%)</title><rect x="105.8" y="2037" width="5.1" height="15.0" fill="rgb(203,203,255)" rx="2" ry="2" />
<text  x="108.78" y="2047.5" ></text>
</g>
<g >
<title>Fsetcar (9,898 samples, 0.54%; +0.03%)</title><rect x="76.1" y="2037" width="6.3" height="15.0" fill="rgb(255,206,206)" rx="2" ry="2" />
<text  x="79.12" y="2047.5" ></text>
</g>
<g >
<title>eval_sub (952 samples, 0.05%; 0.00%)</title><rect x="15.8" y="2021" width="0.6" height="15.0" fill="rgb(255,255,255)" rx="2" ry="2" />
<text  x="18.78" y="2031.5" ></text>
</g>
<g >
<title>[unknown] (3,947 samples, 0.21%; 0.00%)</title><rect x="848.4" y="1861" width="2.5" height="15.0" fill="rgb(255,255,255)" rx="2" ry="2" />
<text  x="851.40" y="1871.5" ></text>
</g>
<g >
<title>[unknown] (2,957 samples, 0.16%; 0.00%)</title><rect x="848.4" y="1365" width="1.9" height="15.0" fill="rgb(255,255,255)" rx="2" ry="2" />
<text  x="851.40" y="1375.5" ></text>
</g>
<g >
<title>list_length (3,680 samples, 0.20%; -0.01%)</title><rect x="863.9" y="2037" width="2.3" height="15.0" fill="rgb(208,208,255)" rx="2" ry="2" />
<text  x="866.89" y="2047.5" ></text>
</g>
<g >
<title>[unknown] (2,716 samples, 0.15%; 0.00%)</title><rect x="848.4" y="741" width="1.7" height="15.0" fill="rgb(255,255,255)" rx="2" ry="2" />
<text  x="851.40" y="751.5" ></text>
</g>
<g >
<title>funcall_subr (1,141 samples, 0.06%; -0.00%)</title><rect x="842.6" y="2037" width="0.7" height="15.0" fill="rgb(209,209,255)" rx="2" ry="2" />
<text  x="845.60" y="2047.5" ></text>
</g>
<g >
<title>__gmpn_sub_n_coreisbr (996 samples, 0.05%; +0.00%)</title><rect x="976.2" y="2053" width="0.6" height="15.0" fill="rgb(255,209,209)" rx="2" ry="2" />
<text  x="979.17" y="2063.5" ></text>
</g>
<g >
<title>[unknown] (2,733 samples, 0.15%; 0.00%)</title><rect x="848.4" y="821" width="1.7" height="15.0" fill="rgb(255,255,255)" rx="2" ry="2" />
<text  x="851.40" y="831.5" ></text>
</g>
<g >
<title>[unknown] (2,579 samples, 0.14%; 0.00%)</title><rect x="848.4" y="261" width="1.6" height="15.0" fill="rgb(255,255,255)" rx="2" ry="2" />
<text  x="851.40" y="271.5" ></text>
</g>
<g >
<title>[unknown] (3,304 samples, 0.18%; 0.00%)</title><rect x="848.4" y="1781" width="2.1" height="15.0" fill="rgb(255,255,255)" rx="2" ry="2" />
<text  x="851.40" y="1791.5" ></text>
</g>
<g >
<title>Fminus (428 samples, 0.02%; -0.00%)</title><rect x="72.3" y="2037" width="0.3" height="15.0" fill="rgb(209,209,255)" rx="2" ry="2" />
<text  x="75.34" y="2047.5" ></text>
</g>
<g >
<title>[unknown] (2,737 samples, 0.15%; 0.00%)</title><rect x="848.4" y="837" width="1.7" height="15.0" fill="rgb(255,255,255)" rx="2" ry="2" />
<text  x="851.40" y="847.5" ></text>
</g>
<g >
<title>[unknown] (2,661 samples, 0.14%; 0.00%)</title><rect x="848.4" y="565" width="1.7" height="15.0" fill="rgb(255,255,255)" rx="2" ry="2" />
<text  x="851.40" y="575.5" ></text>
</g>
<g >
<title>arith_driver (37,433 samples, 2.03%; +0.01%)</title><rect x="993.0" y="2053" width="23.9" height="15.0" fill="rgb(255,209,209)" rx="2" ry="2" />
<text  x="995.98" y="2063.5" >a..</text>
</g>
<g >
<title>[unknown] (2,741 samples, 0.15%; 0.00%)</title><rect x="848.4" y="853" width="1.7" height="15.0" fill="rgb(255,255,255)" rx="2" ry="2" />
<text  x="851.40" y="863.5" ></text>
</g>
<g >
<title>sweep_strings (2,387 samples, 0.13%; -0.00%)</title><rect x="852.8" y="2021" width="1.6" height="15.0" fill="rgb(209,209,255)" rx="2" ry="2" />
<text  x="855.83" y="2031.5" ></text>
</g>
<g >
<title>malloc (6,598 samples, 0.36%; +0.00%)</title><rect x="1109.2" y="2053" width="4.2" height="15.0" fill="rgb(255,209,209)" rx="2" ry="2" />
<text  x="1112.16" y="2063.5" ></text>
</g>
<g >
<title>malloc_consolidate (425 samples, 0.02%; -0.00%)</title><rect x="1113.4" y="2053" width="0.3" height="15.0" fill="rgb(209,209,255)" rx="2" ry="2" />
<text  x="1116.42" y="2063.5" ></text>
</g>
<g >
<title>[unknown] (2,703 samples, 0.15%; 0.00%)</title><rect x="848.4" y="709" width="1.7" height="15.0" fill="rgb(255,255,255)" rx="2" ry="2" />
<text  x="851.40" y="719.5" ></text>
</g>
<g >
<title>apply_lambda (946 samples, 0.05%; 0.00%)</title><rect x="15.8" y="1909" width="0.6" height="15.0" fill="rgb(255,255,255)" rx="2" ry="2" />
<text  x="18.79" y="1919.5" ></text>
</g>
<g >
<title>[unknown] (3,268 samples, 0.18%; 0.00%)</title><rect x="848.4" y="1621" width="2.1" height="15.0" fill="rgb(255,255,255)" rx="2" ry="2" />
<text  x="851.40" y="1631.5" ></text>
</g>
<g >
<title>mapcar1 (3,282 samples, 0.18%; -0.00%)</title><rect x="1113.7" y="2053" width="2.1" height="15.0" fill="rgb(209,209,255)" rx="2" ry="2" />
<text  x="1116.69" y="2063.5" ></text>
</g>
<g >
<title>[unknown] (3,012 samples, 0.16%; 0.00%)</title><rect x="848.4" y="1557" width="1.9" height="15.0" fill="rgb(255,255,255)" rx="2" ry="2" />
<text  x="851.40" y="1567.5" ></text>
</g>
<g >
<title>[unknown] (2,919 samples, 0.16%; 0.00%)</title><rect x="848.4" y="1221" width="1.9" height="15.0" fill="rgb(255,255,255)" rx="2" ry="2" />
<text  x="851.40" y="1231.5" ></text>
</g>
<g >
<title>pdumper_set_marked_impl (6,388 samples, 0.35%; -0.00%)</title><rect x="958.3" y="2037" width="4.1" height="15.0" fill="rgb(209,209,255)" rx="2" ry="2" />
<text  x="961.31" y="2047.5" ></text>
</g>
<g >
<title>[unknown] (2,684 samples, 0.15%; 0.00%)</title><rect x="848.4" y="629" width="1.7" height="15.0" fill="rgb(255,255,255)" rx="2" ry="2" />
<text  x="851.40" y="639.5" ></text>
</g>
<g >
<title>pdumper_find_object_type_impl (241 samples, 0.01%; -0.00%)</title><rect x="953.4" y="2037" width="0.1" height="15.0" fill="rgb(209,209,255)" rx="2" ry="2" />
<text  x="956.36" y="2047.5" ></text>
</g>
<g >
<title>mark_vectorlike (5,782 samples, 0.31%; +0.01%)</title><rect x="1173.5" y="2053" width="3.7" height="15.0" fill="rgb(255,208,208)" rx="2" ry="2" />
<text  x="1176.54" y="2063.5" ></text>
</g>
<g >
<title>[unknown] (2,606 samples, 0.14%; 0.00%)</title><rect x="848.4" y="341" width="1.7" height="15.0" fill="rgb(255,255,255)" rx="2" ry="2" />
<text  x="851.40" y="351.5" ></text>
</g>
<g >
<title>Fsetcdr (382 samples, 0.02%; -0.00%)</title><rect x="82.4" y="2037" width="0.3" height="15.0" fill="rgb(209,209,255)" rx="2" ry="2" />
<text  x="85.45" y="2047.5" ></text>
</g>
<g >
<title>[unknown] (4,168 samples, 0.23%; 0.00%)</title><rect x="848.4" y="1941" width="2.7" height="15.0" fill="rgb(255,255,255)" rx="2" ry="2" />
<text  x="851.40" y="1951.5" ></text>
</g>
<g >
<title>float_arith_driver (903 samples, 0.05%; +0.00%)</title><rect x="801.4" y="2037" width="0.6" height="15.0" fill="rgb(255,209,209)" rx="2" ry="2" />
<text  x="804.38" y="2047.5" ></text>
</g>
<g >
<title>mark_char_table (8,681 samples, 0.47%; +0.01%)</title><rect x="866.6" y="2037" width="5.6" height="15.0" fill="rgb(255,208,208)" rx="2" ry="2" />
<text  x="869.61" y="2047.5" ></text>
</g>
<g >
<title>[unknown] (2,933 samples, 0.16%; 0.00%)</title><rect x="848.4" y="1269" width="1.9" height="15.0" fill="rgb(255,255,255)" rx="2" ry="2" />
<text  x="851.40" y="1279.5" ></text>
</g>
<g >
<title>emacs_mpz_mul (188 samples, 0.01%; +0.00%)</title><rect x="1081.9" y="2053" width="0.1" height="15.0" fill="rgb(255,209,209)" rx="2" ry="2" />
<text  x="1084.92" y="2063.5" ></text>
</g>
<g >
<title>Fsqrt (201 samples, 0.01%; -0.00%)</title><rect x="840.3" y="2053" width="0.2" height="15.0" fill="rgb(209,209,255)" rx="2" ry="2" />
<text  x="843.34" y="2063.5" ></text>
</g>
<g >
<title>__gmpz_set_si (349 samples, 0.02%; +0.02%)</title><rect x="977.4" y="2053" width="0.3" height="15.0" fill="rgb(255,207,207)" rx="2" ry="2" />
<text  x="980.44" y="2063.5" ></text>
</g>
<g >
<title>Faset (3,028 samples, 0.16%; -0.00%)</title><rect x="846.4" y="2037" width="1.9" height="15.0" fill="rgb(209,209,255)" rx="2" ry="2" />
<text  x="849.40" y="2047.5" ></text>
</g>
<g >
<title>sweep_symbols (322 samples, 0.02%; +0.00%)</title><rect x="851.4" y="2005" width="0.2" height="15.0" fill="rgb(255,209,209)" rx="2" ry="2" />
<text  x="854.44" y="2015.5" ></text>
</g>
<g >
<title>Fcons (1,027 samples, 0.06%; +0.01%)</title><rect x="15.1" y="2053" width="0.7" height="15.0" fill="rgb(255,208,208)" rx="2" ry="2" />
<text  x="18.11" y="2063.5" ></text>
</g>
<g >
<title>[unknown] (3,424 samples, 0.19%; 0.00%)</title><rect x="848.4" y="1813" width="2.2" height="15.0" fill="rgb(255,255,255)" rx="2" ry="2" />
<text  x="851.40" y="1823.5" ></text>
</g>
<g >
<title>[unknown] (2,665 samples, 0.14%; 0.00%)</title><rect x="848.4" y="581" width="1.7" height="15.0" fill="rgb(255,255,255)" rx="2" ry="2" />
<text  x="851.40" y="591.5" ></text>
</g>
<g >
<title>Flet (947 samples, 0.05%; -0.00%)</title><rect x="15.8" y="1941" width="0.6" height="15.0" fill="rgb(209,209,255)" rx="2" ry="2" />
<text  x="18.79" y="1951.5" ></text>
</g>
<g >
<title>[unknown] (2,917 samples, 0.16%; 0.00%)</title><rect x="848.4" y="1205" width="1.9" height="15.0" fill="rgb(255,255,255)" rx="2" ry="2" />
<text  x="851.40" y="1215.5" ></text>
</g>
<g >
<title>float_arith_driver (2,924 samples, 0.16%; -0.00%)</title><rect x="1085.2" y="2053" width="1.8" height="15.0" fill="rgb(209,209,255)" rx="2" ry="2" />
<text  x="1088.17" y="2063.5" ></text>
</g>
<g >
<title>record_in_backtrace (27,499 samples, 1.49%; -1.49%)</title><rect x="816.8" y="2037" width="17.5" height="15.0" fill="rgb(0,0,255)" rx="2" ry="2" />
<text  x="819.76" y="2047.5" ></text>
</g>
<g >
<title>[unknown] (3,270 samples, 0.18%; 0.00%)</title><rect x="848.4" y="1637" width="2.1" height="15.0" fill="rgb(255,255,255)" rx="2" ry="2" />
<text  x="851.40" y="1647.5" ></text>
</g>
<g >
<title>sweep_weak_table (237 samples, 0.01%; -0.00%)</title><rect x="1189.0" y="2053" width="0.2" height="15.0" fill="rgb(209,209,255)" rx="2" ry="2" />
<text  x="1192.01" y="2063.5" ></text>
</g>
<g >
<title>sweep_floats (245 samples, 0.01%; +0.00%)</title><rect x="970.6" y="2037" width="0.1" height="15.0" fill="rgb(255,209,209)" rx="2" ry="2" />
<text  x="973.59" y="2047.5" ></text>
</g>
<g >
<title>sweep_symbols (463 samples, 0.03%; +0.00%)</title><rect x="854.4" y="2021" width="0.2" height="15.0" fill="rgb(255,209,209)" rx="2" ry="2" />
<text  x="857.35" y="2031.5" ></text>
</g>
<g >
<title>[unknown] (2,750 samples, 0.15%; 0.00%)</title><rect x="848.4" y="869" width="1.8" height="15.0" fill="rgb(255,255,255)" rx="2" ry="2" />
<text  x="851.40" y="879.5" ></text>
</g>
<g >
<title>hash_lookup (366 samples, 0.02%; +0.00%)</title><rect x="1108.4" y="2053" width="0.3" height="15.0" fill="rgb(255,209,209)" rx="2" ry="2" />
<text  x="1111.43" y="2063.5" ></text>
</g>
<g >
<title>mark_interval_tree (426 samples, 0.02%; -0.00%)</title><rect x="1120.5" y="2053" width="0.2" height="15.0" fill="rgb(209,209,255)" rx="2" ry="2" />
<text  x="1123.47" y="2063.5" ></text>
</g>
<g >
<title>__gmpn_divrem_2 (454 samples, 0.02%; +0.00%)</title><rect x="854.7" y="2037" width="0.3" height="15.0" fill="rgb(255,209,209)" rx="2" ry="2" />
<text  x="857.70" y="2047.5" ></text>
</g>
<g >
<title>[unknown] (2,989 samples, 0.16%; 0.00%)</title><rect x="848.4" y="1477" width="1.9" height="15.0" fill="rgb(255,255,255)" rx="2" ry="2" />
<text  x="851.40" y="1487.5" ></text>
</g>
<g >
<title>Fminus (1,448 samples, 0.08%; -0.01%)</title><rect x="834.9" y="2053" width="0.9" height="15.0" fill="rgb(208,208,255)" rx="2" ry="2" />
<text  x="837.88" y="2063.5" ></text>
</g>
<g >
<title>__gmpz_add (427 samples, 0.02%; -0.00%)</title><rect x="976.8" y="2053" width="0.3" height="15.0" fill="rgb(209,209,255)" rx="2" ry="2" />
<text  x="979.81" y="2063.5" ></text>
</g>
<g >
<title>main_thread_p (181 samples, 0.01%; +0.00%)</title><rect x="866.4" y="2037" width="0.1" height="15.0" fill="rgb(255,209,209)" rx="2" ry="2" />
<text  x="869.35" y="2047.5" ></text>
</g>
<g >
<title>[unknown] (2,952 samples, 0.16%; 0.00%)</title><rect x="848.4" y="1349" width="1.9" height="15.0" fill="rgb(255,255,255)" rx="2" ry="2" />
<text  x="851.40" y="1359.5" ></text>
</g>
<g >
<title>maybe_quit (459 samples, 0.02%; -0.00%)</title><rect x="1177.2" y="2053" width="0.3" height="15.0" fill="rgb(209,209,255)" rx="2" ry="2" />
<text  x="1180.24" y="2063.5" ></text>
</g>
<g >
<title>[unknown] (2,631 samples, 0.14%; 0.00%)</title><rect x="848.4" y="469" width="1.7" height="15.0" fill="rgb(255,255,255)" rx="2" ry="2" />
<text  x="851.40" y="479.5" ></text>
</g>
<g >
<title>[unknown] (2,692 samples, 0.15%; 0.00%)</title><rect x="848.4" y="661" width="1.7" height="15.0" fill="rgb(255,255,255)" rx="2" ry="2" />
<text  x="851.40" y="671.5" ></text>
</g>
<g >
<title>call1 (1,481 samples, 0.08%; +0.00%)</title><rect x="1051.3" y="2053" width="0.9" height="15.0" fill="rgb(255,209,209)" rx="2" ry="2" />
<text  x="1054.26" y="2063.5" ></text>
</g>
<g >
<title>[unknown] (2,719 samples, 0.15%; 0.00%)</title><rect x="848.4" y="757" width="1.7" height="15.0" fill="rgb(255,255,255)" rx="2" ry="2" />
<text  x="851.40" y="767.5" ></text>
</g>
<g >
<title>allocate_vectorlike (16,662 samples, 0.90%; -0.00%)</title><rect x="982.3" y="2053" width="10.7" height="15.0" fill="rgb(209,209,255)" rx="2" ry="2" />
<text  x="985.32" y="2063.5" ></text>
</g>
<g >
<title>[unknown] (2,777 samples, 0.15%; 0.00%)</title><rect x="848.4" y="965" width="1.8" height="15.0" fill="rgb(255,255,255)" rx="2" ry="2" />
<text  x="851.40" y="975.5" ></text>
</g>
<g >
<title>pdumper_marked_p_impl (7,497 samples, 0.41%; +0.00%)</title><rect x="953.5" y="2037" width="4.8" height="15.0" fill="rgb(255,209,209)" rx="2" ry="2" />
<text  x="956.52" y="2047.5" ></text>
</g>
<g >
<title>[unknown] (2,977 samples, 0.16%; 0.00%)</title><rect x="848.4" y="1445" width="1.9" height="15.0" fill="rgb(255,255,255)" rx="2" ry="2" />
<text  x="851.40" y="1455.5" ></text>
</g>
<g >
<title>Faref (1,378 samples, 0.07%; +0.00%)</title><rect x="50.1" y="2037" width="0.9" height="15.0" fill="rgb(255,209,209)" rx="2" ry="2" />
<text  x="53.11" y="2047.5" ></text>
</g>
<g >
<title>Fplus (5,464 samples, 0.30%; -0.01%)</title><rect x="72.6" y="2037" width="3.5" height="15.0" fill="rgb(208,208,255)" rx="2" ry="2" />
<text  x="75.62" y="2047.5" ></text>
</g>
<g >
<title>Faset (2,378 samples, 0.13%; -0.00%)</title><rect x="51.0" y="2037" width="1.5" height="15.0" fill="rgb(209,209,255)" rx="2" ry="2" />
<text  x="53.99" y="2047.5" ></text>
</g>
<g >
<title>mem_delete.part.0 (204 samples, 0.01%; +0.00%)</title><rect x="951.7" y="2037" width="0.2" height="15.0" fill="rgb(255,209,209)" rx="2" ry="2" />
<text  x="954.75" y="2047.5" ></text>
</g>
<g >
<title>[unknown] (2,913 samples, 0.16%; 0.00%)</title><rect x="848.4" y="1189" width="1.9" height="15.0" fill="rgb(255,255,255)" rx="2" ry="2" />
<text  x="851.40" y="1199.5" ></text>
</g>
<g >
<title>[unknown] (2,937 samples, 0.16%; 0.00%)</title><rect x="848.4" y="1301" width="1.9" height="15.0" fill="rgb(255,255,255)" rx="2" ry="2" />
<text  x="851.40" y="1311.5" ></text>
</g>
<g >
<title>[unknown] (3,097 samples, 0.17%; 0.00%)</title><rect x="848.4" y="1589" width="2.0" height="15.0" fill="rgb(255,255,255)" rx="2" ry="2" />
<text  x="851.40" y="1599.5" ></text>
</g>
<g >
<title>Ftimes (1,287 samples, 0.07%; -0.00%)</title><rect x="840.7" y="2053" width="0.9" height="15.0" fill="rgb(209,209,255)" rx="2" ry="2" />
<text  x="843.73" y="2063.5" ></text>
</g>
<g >
<title>__gmpn_lshift_coreisbr (162 samples, 0.01%; -0.00%)</title><rect x="963.5" y="2005" width="0.1" height="15.0" fill="rgb(209,209,255)" rx="2" ry="2" />
<text  x="966.45" y="2015.5" ></text>
</g>
<g >
<title>mem_find (172 samples, 0.01%; +0.00%)</title><rect x="1177.5" y="2053" width="0.1" height="15.0" fill="rgb(255,209,209)" rx="2" ry="2" />
<text  x="1180.53" y="2063.5" ></text>
</g>
<g >
<title>mem_find (227 samples, 0.01%; +0.00%)</title><rect x="848.5" y="37" width="0.2" height="15.0" fill="rgb(255,209,209)" rx="2" ry="2" />
<text  x="851.53" y="47.5" ></text>
</g>
<g >
<title>_int_free (10,240 samples, 0.55%; -0.02%)</title><rect x="856.0" y="2037" width="6.5" height="15.0" fill="rgb(207,207,255)" rx="2" ry="2" />
<text  x="858.98" y="2047.5" ></text>
</g>
<g >
<title>mark_object (81,774 samples, 4.43%; +0.07%)</title><rect x="1121.2" y="2053" width="52.3" height="15.0" fill="rgb(255,200,200)" rx="2" ry="2" />
<text  x="1124.21" y="2063.5" >mark_..</text>
</g>
<g >
<title>[unknown] (3,289 samples, 0.18%; 0.00%)</title><rect x="848.4" y="1733" width="2.1" height="15.0" fill="rgb(255,255,255)" rx="2" ry="2" />
<text  x="851.40" y="1743.5" ></text>
</g>
<g >
<title>mark_interval_tree (227 samples, 0.01%; -0.00%)</title><rect x="873.2" y="2037" width="0.1" height="15.0" fill="rgb(209,209,255)" rx="2" ry="2" />
<text  x="876.16" y="2047.5" ></text>
</g>
<g >
<title>funcall_subr (602 samples, 0.03%; +0.00%)</title><rect x="1106.5" y="2053" width="0.4" height="15.0" fill="rgb(255,209,209)" rx="2" ry="2" />
<text  x="1109.54" y="2063.5" ></text>
</g>
<g >
<title>[unknown] (4,037 samples, 0.22%; 0.00%)</title><rect x="848.4" y="1893" width="2.6" height="15.0" fill="rgb(255,255,255)" rx="2" ry="2" />
<text  x="851.40" y="1903.5" ></text>
</g>
<g >
<title>arith_driver (10,639 samples, 0.58%; -0.02%)</title><rect x="99.0" y="2037" width="6.8" height="15.0" fill="rgb(207,207,255)" rx="2" ry="2" />
<text  x="101.98" y="2047.5" ></text>
</g>
<g >
<title>[unknown] (2,964 samples, 0.16%; 0.00%)</title><rect x="848.4" y="1397" width="1.9" height="15.0" fill="rgb(255,255,255)" rx="2" ry="2" />
<text  x="851.40" y="1407.5" ></text>
</g>
<g >
<title>[unknown] (2,870 samples, 0.16%; 0.00%)</title><rect x="848.4" y="1125" width="1.8" height="15.0" fill="rgb(255,255,255)" rx="2" ry="2" />
<text  x="851.40" y="1135.5" ></text>
</g>
<g >
<title>eval_sub (949 samples, 0.05%; 0.00%)</title><rect x="15.8" y="1973" width="0.6" height="15.0" fill="rgb(255,255,255)" rx="2" ry="2" />
<text  x="18.79" y="1983.5" ></text>
</g>
<g >
<title>[unknown] (2,627 samples, 0.14%; 0.00%)</title><rect x="848.4" y="453" width="1.7" height="15.0" fill="rgb(255,255,255)" rx="2" ry="2" />
<text  x="851.40" y="463.5" ></text>
</g>
<g >
<title>allocate_pseudovector (487 samples, 0.03%; -0.00%)</title><rect x="982.0" y="2053" width="0.3" height="15.0" fill="rgb(209,209,255)" rx="2" ry="2" />
<text  x="985.01" y="2063.5" ></text>
</g>
<g >
<title>[unknown] (2,564 samples, 0.14%; 0.00%)</title><rect x="848.4" y="229" width="1.6" height="15.0" fill="rgb(255,255,255)" rx="2" ry="2" />
<text  x="851.40" y="239.5" ></text>
</g>
<g >
<title>[unknown] (5,083 samples, 0.28%; 0.00%)</title><rect x="848.4" y="2021" width="3.2" height="15.0" fill="rgb(255,255,255)" rx="2" ry="2" />
<text  x="851.40" y="2031.5" ></text>
</g>
<g >
<title>[unknown] (2,651 samples, 0.14%; 0.00%)</title><rect x="848.4" y="533" width="1.7" height="15.0" fill="rgb(255,255,255)" rx="2" ry="2" />
<text  x="851.40" y="543.5" ></text>
</g>
<g >
<title>mark_maybe_object (211 samples, 0.01%; -0.00%)</title><rect x="1120.9" y="2053" width="0.1" height="15.0" fill="rgb(209,209,255)" rx="2" ry="2" />
<text  x="1123.89" y="2063.5" ></text>
</g>
<g >
<title>Fplus (6,975 samples, 0.38%; -0.01%)</title><rect x="835.8" y="2053" width="4.5" height="15.0" fill="rgb(208,208,255)" rx="2" ry="2" />
<text  x="838.81" y="2063.5" ></text>
</g>
<g >
<title>cfree@GLIBC_2.2.5 (988 samples, 0.05%; -0.00%)</title><rect x="863.2" y="2037" width="0.6" height="15.0" fill="rgb(209,209,255)" rx="2" ry="2" />
<text  x="866.17" y="2047.5" ></text>
</g>
<g >
<title>eval_sub (957 samples, 0.05%; +0.00%)</title><rect x="15.8" y="2037" width="0.6" height="15.0" fill="rgb(255,209,209)" rx="2" ry="2" />
<text  x="18.78" y="2047.5" ></text>
</g>
<g >
<title>grow_specpdl (12,048 samples, 0.65%; -0.02%)</title><rect x="802.0" y="2037" width="7.7" height="15.0" fill="rgb(207,207,255)" rx="2" ry="2" />
<text  x="804.96" y="2047.5" ></text>
</g>
<g >
<title>[unknown] (2,788 samples, 0.15%; 0.00%)</title><rect x="848.4" y="997" width="1.8" height="15.0" fill="rgb(255,255,255)" rx="2" ry="2" />
<text  x="851.40" y="1007.5" ></text>
</g>
<g >
<title>[unknown] (2,992 samples, 0.16%; 0.00%)</title><rect x="848.4" y="1493" width="1.9" height="15.0" fill="rgb(255,255,255)" rx="2" ry="2" />
<text  x="851.40" y="1503.5" ></text>
</g>
<g >
<title>realloc (695 samples, 0.04%; -0.00%)</title><rect x="962.4" y="2037" width="0.5" height="15.0" fill="rgb(209,209,255)" rx="2" ry="2" />
<text  x="965.43" y="2047.5" ></text>
</g>
<g >
<title>make_bignum_bits (245 samples, 0.01%; -0.00%)</title><rect x="809.7" y="2037" width="0.1" height="15.0" fill="rgb(209,209,255)" rx="2" ry="2" />
<text  x="812.69" y="2047.5" ></text>
</g>
<g >
<title>[unknown] (9,854 samples, 0.53%; 0.00%)</title><rect x="848.4" y="2037" width="6.3" height="15.0" fill="rgb(255,255,255)" rx="2" ry="2" />
<text  x="851.39" y="2047.5" ></text>
</g>
<g >
<title>[unknown] (3,277 samples, 0.18%; 0.00%)</title><rect x="848.4" y="1669" width="2.1" height="15.0" fill="rgb(255,255,255)" rx="2" ry="2" />
<text  x="851.40" y="1679.5" ></text>
</g>
<g >
<title>[unknown] (2,761 samples, 0.15%; 0.00%)</title><rect x="848.4" y="917" width="1.8" height="15.0" fill="rgb(255,255,255)" rx="2" ry="2" />
<text  x="851.40" y="927.5" ></text>
</g>
<g >
<title>_int_malloc (5,903 samples, 0.32%; -0.01%)</title><rect x="978.2" y="2053" width="3.8" height="15.0" fill="rgb(208,208,255)" rx="2" ry="2" />
<text  x="981.21" y="2063.5" ></text>
</g>
<g >
<title>rounding_driver (1,028 samples, 0.06%; -0.00%)</title><rect x="962.9" y="2037" width="0.7" height="15.0" fill="rgb(209,209,255)" rx="2" ry="2" />
<text  x="965.90" y="2047.5" ></text>
</g>
<g >
<title>[unknown] (2,799 samples, 0.15%; 0.00%)</title><rect x="848.4" y="1029" width="1.8" height="15.0" fill="rgb(255,255,255)" rx="2" ry="2" />
<text  x="851.40" y="1039.5" ></text>
</g>
<g >
<title>[unknown] (3,296 samples, 0.18%; 0.00%)</title><rect x="848.4" y="1765" width="2.1" height="15.0" fill="rgb(255,255,255)" rx="2" ry="2" />
<text  x="851.40" y="1775.5" ></text>
</g>
<g >
<title>[unknown] (3,284 samples, 0.18%; 0.00%)</title><rect x="848.4" y="1717" width="2.1" height="15.0" fill="rgb(255,255,255)" rx="2" ry="2" />
<text  x="851.40" y="1727.5" ></text>
</g>
<g >
<title>[unknown] (2,946 samples, 0.16%; 0.00%)</title><rect x="848.4" y="1333" width="1.9" height="15.0" fill="rgb(255,255,255)" rx="2" ry="2" />
<text  x="851.40" y="1343.5" ></text>
</g>
<g >
<title>[unknown] (2,853 samples, 0.15%; 0.00%)</title><rect x="848.4" y="1109" width="1.8" height="15.0" fill="rgb(255,255,255)" rx="2" ry="2" />
<text  x="851.40" y="1119.5" ></text>
</g>
<g >
<title>__gmpz_realloc (437 samples, 0.02%; +0.01%)</title><rect x="977.2" y="2053" width="0.2" height="15.0" fill="rgb(255,209,209)" rx="2" ry="2" />
<text  x="980.16" y="2063.5" ></text>
</g>
<g >
<title>sweep_strings (1,528 samples, 0.08%; -0.00%)</title><rect x="970.7" y="2037" width="1.0" height="15.0" fill="rgb(209,209,255)" rx="2" ry="2" />
<text  x="973.75" y="2047.5" ></text>
</g>
<g >
<title>[unknown] (2,537 samples, 0.14%; 0.00%)</title><rect x="848.4" y="149" width="1.6" height="15.0" fill="rgb(255,255,255)" rx="2" ry="2" />
<text  x="851.40" y="159.5" ></text>
</g>
<g >
<title>[unknown] (2,539 samples, 0.14%; 0.00%)</title><rect x="848.4" y="165" width="1.6" height="15.0" fill="rgb(255,255,255)" rx="2" ry="2" />
<text  x="851.40" y="175.5" ></text>
</g>
<g >
<title>[unknown] (205,388 samples, 11.13%; 0.00%)</title><rect x="843.3" y="2053" width="131.4" height="15.0" fill="rgb(255,255,255)" rx="2" ry="2" />
<text  x="846.34" y="2063.5" >[unknown]</text>
</g>
<g >
<title>make_float (271 samples, 0.01%; -0.00%)</title><rect x="1109.0" y="2053" width="0.1" height="15.0" fill="rgb(209,209,255)" rx="2" ry="2" />
<text  x="1111.96" y="2063.5" ></text>
</g>
<g >
<title>[unknown] (2,534 samples, 0.14%; 0.00%)</title><rect x="848.4" y="133" width="1.6" height="15.0" fill="rgb(255,255,255)" rx="2" ry="2" />
<text  x="851.40" y="143.5" ></text>
</g>
<g >
<title>[unknown] (2,648 samples, 0.14%; 0.00%)</title><rect x="848.4" y="517" width="1.7" height="15.0" fill="rgb(255,255,255)" rx="2" ry="2" />
<text  x="851.40" y="527.5" ></text>
</g>
<g >
<title>make_bignum_bits (187 samples, 0.01%; +0.00%)</title><rect x="866.5" y="2037" width="0.1" height="15.0" fill="rgb(255,209,209)" rx="2" ry="2" />
<text  x="869.47" y="2047.5" ></text>
</g>
<g >
<title>[unknown] (2,968 samples, 0.16%; 0.00%)</title><rect x="848.4" y="1413" width="1.9" height="15.0" fill="rgb(255,255,255)" rx="2" ry="2" />
<text  x="851.40" y="1423.5" ></text>
</g>
<g >
<title>sweep_floats (1,642 samples, 0.09%; -0.00%)</title><rect x="848.9" y="37" width="1.1" height="15.0" fill="rgb(209,209,255)" rx="2" ry="2" />
<text  x="851.93" y="47.5" ></text>
</g>
<g >
<title>__gmpz_init (299 samples, 0.02%; +0.00%)</title><rect x="855.3" y="2037" width="0.2" height="15.0" fill="rgb(255,209,209)" rx="2" ry="2" />
<text  x="858.31" y="2047.5" ></text>
</g>
<g >
<title>emacs (1,845,379 samples, 100.00%; +0.01%)</title><rect x="10.0" y="2069" width="1180.0" height="15.0" fill="rgb(255,209,209)" rx="2" ry="2" />
<text  x="13.00" y="2079.5" >emacs</text>
</g>
<g >
<title>[unknown] (2,938 samples, 0.16%; 0.00%)</title><rect x="848.4" y="1317" width="1.9" height="15.0" fill="rgb(255,255,255)" rx="2" ry="2" />
<text  x="851.40" y="1327.5" ></text>
</g>
<g >
<title>[unknown] (2,886 samples, 0.16%; 0.00%)</title><rect x="848.4" y="1141" width="1.8" height="15.0" fill="rgb(255,255,255)" rx="2" ry="2" />
<text  x="851.40" y="1151.5" ></text>
</g>
<g >
<title>[unknown] (3,184 samples, 0.17%; 0.00%)</title><rect x="848.4" y="1605" width="2.0" height="15.0" fill="rgb(255,255,255)" rx="2" ry="2" />
<text  x="851.40" y="1615.5" ></text>
</g>
<g >
<title>[unknown] (3,293 samples, 0.18%; 0.00%)</title><rect x="848.4" y="1749" width="2.1" height="15.0" fill="rgb(255,255,255)" rx="2" ry="2" />
<text  x="851.40" y="1759.5" ></text>
</g>
<g >
<title>[unknown] (3,014 samples, 0.16%; 0.00%)</title><rect x="848.4" y="1573" width="1.9" height="15.0" fill="rgb(255,255,255)" rx="2" ry="2" />
<text  x="851.40" y="1583.5" ></text>
</g>
<g >
<title>__gmpn_add_n_coreisbr (2,290 samples, 0.12%; -0.00%)</title><rect x="974.7" y="2053" width="1.5" height="15.0" fill="rgb(209,209,255)" rx="2" ry="2" />
<text  x="977.69" y="2063.5" ></text>
</g>
<g >
<title>maybe_quit (4,700 samples, 0.25%; +0.02%)</title><rect x="811.6" y="2037" width="3.0" height="15.0" fill="rgb(255,207,207)" rx="2" ry="2" />
<text  x="814.63" y="2047.5" ></text>
</g>
<g >
<title>[unknown] (2,611 samples, 0.14%; 0.00%)</title><rect x="848.4" y="373" width="1.7" height="15.0" fill="rgb(255,255,255)" rx="2" ry="2" />
<text  x="851.40" y="383.5" ></text>
</g>
<g >
<title>[unknown] (2,794 samples, 0.15%; 0.00%)</title><rect x="848.4" y="1013" width="1.8" height="15.0" fill="rgb(255,255,255)" rx="2" ry="2" />
<text  x="851.40" y="1023.5" ></text>
</g>
<g >
<title>[unknown] (2,961 samples, 0.16%; 0.00%)</title><rect x="848.4" y="1381" width="1.9" height="15.0" fill="rgb(255,255,255)" rx="2" ry="2" />
<text  x="851.40" y="1391.5" ></text>
</g>
<g >
<title>__gmpn_mul_1_coreisbr (12,474 samples, 0.68%; -0.01%)</title><rect x="1008.3" y="2037" width="7.9" height="15.0" fill="rgb(208,208,255)" rx="2" ry="2" />
<text  x="1011.26" y="2047.5" ></text>
</g>
<g >
<title>[unknown] (2,708 samples, 0.15%; 0.00%)</title><rect x="848.4" y="725" width="1.7" height="15.0" fill="rgb(255,255,255)" rx="2" ry="2" />
<text  x="851.40" y="735.5" ></text>
</g>
<g >
<title>Flet (951 samples, 0.05%; 0.00%)</title><rect x="15.8" y="2005" width="0.6" height="15.0" fill="rgb(255,255,255)" rx="2" ry="2" />
<text  x="18.78" y="2015.5" ></text>
</g>
<g >
<title>pdumper_cold_object_p_impl (1,062 samples, 0.06%; -0.00%)</title><rect x="952.7" y="2037" width="0.7" height="15.0" fill="rgb(209,209,255)" rx="2" ry="2" />
<text  x="955.69" y="2047.5" ></text>
</g>
<g >
<title>[unknown] (2,721 samples, 0.15%; 0.00%)</title><rect x="848.4" y="773" width="1.7" height="15.0" fill="rgb(255,255,255)" rx="2" ry="2" />
<text  x="851.40" y="783.5" ></text>
</g>
<g >
<title>[unknown] (3,307 samples, 0.18%; 0.00%)</title><rect x="848.4" y="1797" width="2.1" height="15.0" fill="rgb(255,255,255)" rx="2" ry="2" />
<text  x="851.40" y="1807.5" ></text>
</g>
<g >
<title>[unknown] (2,544 samples, 0.14%; 0.00%)</title><rect x="848.4" y="181" width="1.6" height="15.0" fill="rgb(255,255,255)" rx="2" ry="2" />
<text  x="851.40" y="191.5" ></text>
</g>
<g >
<title>[unknown] (3,001 samples, 0.16%; 0.00%)</title><rect x="848.4" y="1525" width="1.9" height="15.0" fill="rgb(255,255,255)" rx="2" ry="2" />
<text  x="851.40" y="1535.5" ></text>
</g>
<g >
<title>__gmpz_mul (989 samples, 0.05%; +0.00%)</title><rect x="1016.2" y="2037" width="0.7" height="15.0" fill="rgb(255,209,209)" rx="2" ry="2" />
<text  x="1019.24" y="2047.5" ></text>
</g>
<g >
<title>[unknown] (2,603 samples, 0.14%; 0.00%)</title><rect x="848.4" y="325" width="1.7" height="15.0" fill="rgb(255,255,255)" rx="2" ry="2" />
<text  x="851.40" y="335.5" ></text>
</g>
<g >
<title>[unknown] (2,555 samples, 0.14%; 0.00%)</title><rect x="848.4" y="197" width="1.6" height="15.0" fill="rgb(255,255,255)" rx="2" ry="2" />
<text  x="851.40" y="207.5" ></text>
</g>
<g >
<title>[unknown] (2,812 samples, 0.15%; 0.00%)</title><rect x="848.4" y="1045" width="1.8" height="15.0" fill="rgb(255,255,255)" rx="2" ry="2" />
<text  x="851.40" y="1055.5" ></text>
</g>
<g >
<title>mem_insert.isra.0 (380 samples, 0.02%; -0.00%)</title><rect x="848.7" y="37" width="0.2" height="15.0" fill="rgb(209,209,255)" rx="2" ry="2" />
<text  x="851.68" y="47.5" ></text>
</g>
<g >
<title>__gmpn_invert_limb (279 samples, 0.02%; -0.00%)</title><rect x="855.0" y="2037" width="0.2" height="15.0" fill="rgb(209,209,255)" rx="2" ry="2" />
<text  x="857.99" y="2047.5" ></text>
</g>
<g >
<title>eval_sub (946 samples, 0.05%; +0.00%)</title><rect x="15.8" y="1925" width="0.6" height="15.0" fill="rgb(255,209,209)" rx="2" ry="2" />
<text  x="18.79" y="1935.5" ></text>
</g>
<g >
<title>[unknown] (2,519 samples, 0.14%; 0.00%)</title><rect x="848.4" y="69" width="1.6" height="15.0" fill="rgb(255,255,255)" rx="2" ry="2" />
<text  x="851.40" y="79.5" ></text>
</g>
<g >
<title>[unknown] (2,928 samples, 0.16%; 0.00%)</title><rect x="848.4" y="1253" width="1.9" height="15.0" fill="rgb(255,255,255)" rx="2" ry="2" />
<text  x="851.40" y="1263.5" ></text>
</g>
<g >
<title>[unknown] (2,618 samples, 0.14%; 0.00%)</title><rect x="848.4" y="421" width="1.7" height="15.0" fill="rgb(255,255,255)" rx="2" ry="2" />
<text  x="851.40" y="431.5" ></text>
</g>
<g >
<title>[unknown] (2,971 samples, 0.16%; 0.00%)</title><rect x="848.4" y="1429" width="1.9" height="15.0" fill="rgb(255,255,255)" rx="2" ry="2" />
<text  x="851.40" y="1439.5" ></text>
</g>
<g >
<title>__gmpz_sizeinbase (371 samples, 0.02%; -0.00%)</title><rect x="977.7" y="2053" width="0.2" height="15.0" fill="rgb(209,209,255)" rx="2" ry="2" />
<text  x="980.69" y="2063.5" ></text>
</g>
<g >
<title>Fmemq (835 samples, 0.05%; -0.02%)</title><rect x="834.3" y="2053" width="0.6" height="15.0" fill="rgb(206,206,255)" rx="2" ry="2" />
<text  x="837.35" y="2063.5" ></text>
</g>
<g >
<title>[unknown] (2,782 samples, 0.15%; 0.00%)</title><rect x="848.4" y="981" width="1.8" height="15.0" fill="rgb(255,255,255)" rx="2" ry="2" />
<text  x="851.40" y="991.5" ></text>
</g>
<g >
<title>[unknown] (2,676 samples, 0.15%; 0.00%)</title><rect x="848.4" y="613" width="1.7" height="15.0" fill="rgb(255,255,255)" rx="2" ry="2" />
<text  x="851.40" y="623.5" ></text>
</g>
<g >
<title>[unknown] (2,522 samples, 0.14%; 0.00%)</title><rect x="848.4" y="85" width="1.6" height="15.0" fill="rgb(255,255,255)" rx="2" ry="2" />
<text  x="851.40" y="95.5" ></text>
</g>
<g >
<title>allocate_pseudovector (208 samples, 0.01%; -0.00%)</title><rect x="98.8" y="2037" width="0.2" height="15.0" fill="rgb(209,209,255)" rx="2" ry="2" />
<text  x="101.85" y="2047.5" ></text>
</g>
<g >
<title>all (1,845,379 samples, 100%)</title><rect x="10.0" y="2085" width="1180.0" height="15.0" fill="rgb(255,255,255)" rx="2" ry="2" />
<text  x="13.00" y="2095.5" ></text>
</g>
<g >
<title>[unknown] (2,754 samples, 0.15%; 0.00%)</title><rect x="848.4" y="885" width="1.8" height="15.0" fill="rgb(255,255,255)" rx="2" ry="2" />
<text  x="851.40" y="895.5" ></text>
</g>
<g >
<title>Ffuncall (29,848 samples, 1.62%; +0.79%)</title><rect x="52.6" y="2037" width="19.0" height="15.0" fill="rgb(255,98,98)" rx="2" ry="2" />
<text  x="55.55" y="2047.5" ></text>
</g>
<g >
<title>Ffuncall (1,279,166 samples, 69.32%; -0.03%)</title><rect x="16.4" y="2053" width="817.9" height="15.0" fill="rgb(206,206,255)" rx="2" ry="2" />
<text  x="19.40" y="2063.5" >Ffuncall</text>
</g>
<g >
<title>[unknown] (4,603 samples, 0.25%; 0.00%)</title><rect x="848.4" y="1989" width="2.9" height="15.0" fill="rgb(255,255,255)" rx="2" ry="2" />
<text  x="851.40" y="1999.5" ></text>
</g>
<g >
<title>[unknown] (2,907 samples, 0.16%; 0.00%)</title><rect x="848.4" y="1173" width="1.9" height="15.0" fill="rgb(255,255,255)" rx="2" ry="2" />
<text  x="851.40" y="1183.5" ></text>
</g>
<g >
<title>xmalloc (289 samples, 0.02%; +0.03%)</title><rect x="1189.8" y="2053" width="0.2" height="15.0" fill="rgb(255,205,205)" rx="2" ry="2" />
<text  x="1192.77" y="2063.5" ></text>
</g>
<g >
<title>arithcompare (53,703 samples, 2.91%; +0.11%)</title><rect x="1016.9" y="2053" width="34.4" height="15.0" fill="rgb(255,195,195)" rx="2" ry="2" />
<text  x="1019.91" y="2063.5" >ar..</text>
</g>
<g >
<title>[unknown] (2,526 samples, 0.14%; 0.00%)</title><rect x="848.4" y="101" width="1.6" height="15.0" fill="rgb(255,255,255)" rx="2" ry="2" />
<text  x="851.40" y="111.5" ></text>
</g>
<g >
<title>[unknown] (2,775 samples, 0.15%; 0.00%)</title><rect x="848.4" y="949" width="1.8" height="15.0" fill="rgb(255,255,255)" rx="2" ry="2" />
<text  x="851.40" y="959.5" ></text>
</g>
<g >
<title>lisp_align_malloc (363 samples, 0.02%; -0.00%)</title><rect x="1108.7" y="2053" width="0.2" height="15.0" fill="rgb(209,209,255)" rx="2" ry="2" />
<text  x="1111.72" y="2063.5" ></text>
</g>
<g >
<title>live_vector_holding.isra.0 (179 samples, 0.01%; +0.00%)</title><rect x="866.2" y="2037" width="0.2" height="15.0" fill="rgb(255,209,209)" rx="2" ry="2" />
<text  x="869.24" y="2047.5" ></text>
</g>
<g >
<title>sweep_conses (10,949 samples, 0.59%; +0.01%)</title><rect x="963.6" y="2037" width="7.0" height="15.0" fill="rgb(255,208,208)" rx="2" ry="2" />
<text  x="966.59" y="2047.5" ></text>
</g>
<g >
<title>[unknown] (3,904 samples, 0.21%; 0.00%)</title><rect x="848.4" y="1845" width="2.5" height="15.0" fill="rgb(255,255,255)" rx="2" ry="2" />
<text  x="851.40" y="1855.5" ></text>
</g>
<g >
<title>[unknown] (4,117 samples, 0.22%; 0.00%)</title><rect x="848.4" y="1925" width="2.6" height="15.0" fill="rgb(255,255,255)" rx="2" ry="2" />
<text  x="851.40" y="1935.5" ></text>
</g>
<g >
<title>exec_byte_code (1,079,875 samples, 58.52%; +1.08%)</title><rect x="110.9" y="2037" width="690.5" height="15.0" fill="rgb(255,57,57)" rx="2" ry="2" />
<text  x="113.87" y="2047.5" >exec_byte_code</text>
</g>
<g >
<title>[unknown] (2,613 samples, 0.14%; 0.00%)</title><rect x="848.4" y="389" width="1.7" height="15.0" fill="rgb(255,255,255)" rx="2" ry="2" />
<text  x="851.40" y="399.5" ></text>
</g>
<g >
<title>[unknown] (3,997 samples, 0.22%; 0.00%)</title><rect x="848.4" y="1877" width="2.6" height="15.0" fill="rgb(255,255,255)" rx="2" ry="2" />
<text  x="851.40" y="1887.5" ></text>
</g>
<g >
<title>[unknown] (3,275 samples, 0.18%; 0.00%)</title><rect x="848.4" y="1653" width="2.1" height="15.0" fill="rgb(255,255,255)" rx="2" ry="2" />
<text  x="851.40" y="1663.5" ></text>
</g>
<g >
<title>[unknown] (4,389 samples, 0.24%; 0.00%)</title><rect x="848.4" y="1957" width="2.8" height="15.0" fill="rgb(255,255,255)" rx="2" ry="2" />
<text  x="851.40" y="1967.5" ></text>
</g>
<g >
<title>mark_localized_symbol (223 samples, 0.01%; -0.00%)</title><rect x="1120.7" y="2053" width="0.2" height="15.0" fill="rgb(209,209,255)" rx="2" ry="2" />
<text  x="1123.75" y="2063.5" ></text>
</g>
<g >
<title>[unknown] (2,935 samples, 0.16%; 0.00%)</title><rect x="848.4" y="1285" width="1.9" height="15.0" fill="rgb(255,255,255)" rx="2" ry="2" />
<text  x="851.40" y="1295.5" ></text>
</g>
<g >
<title>memcpy@plt (3,305 samples, 0.18%; -0.10%)</title><rect x="814.6" y="2037" width="2.2" height="15.0" fill="rgb(195,195,255)" rx="2" ry="2" />
<text  x="817.64" y="2047.5" ></text>
</g>
<g >
<title>[unknown] (2,687 samples, 0.15%; 0.00%)</title><rect x="848.4" y="645" width="1.7" height="15.0" fill="rgb(255,255,255)" rx="2" ry="2" />
<text  x="851.40" y="655.5" ></text>
</g>
<g >
<title>[unknown] (2,657 samples, 0.14%; 0.00%)</title><rect x="848.4" y="549" width="1.7" height="15.0" fill="rgb(255,255,255)" rx="2" ry="2" />
<text  x="851.40" y="559.5" ></text>
</g>
<g >
<title>pdumper_marked_p_impl (9,385 samples, 0.51%; +0.00%)</title><rect x="1177.7" y="2053" width="6.0" height="15.0" fill="rgb(255,209,209)" rx="2" ry="2" />
<text  x="1180.72" y="2063.5" ></text>
</g>
<g >
<title>Fstring_lessp (401 samples, 0.02%; -0.00%)</title><rect x="840.5" y="2053" width="0.2" height="15.0" fill="rgb(209,209,255)" rx="2" ry="2" />
<text  x="843.47" y="2063.5" ></text>
</g>
<g >
<title>[unknown] (2,615 samples, 0.14%; 0.00%)</title><rect x="848.4" y="405" width="1.7" height="15.0" fill="rgb(255,255,255)" rx="2" ry="2" />
<text  x="851.40" y="415.5" ></text>
</g>
<g >
<title>[unknown] (2,597 samples, 0.14%; 0.00%)</title><rect x="848.4" y="309" width="1.7" height="15.0" fill="rgb(255,255,255)" rx="2" ry="2" />
<text  x="851.40" y="319.5" ></text>
</g>
<g >
<title>eval_sub (949 samples, 0.05%; -0.00%)</title><rect x="15.8" y="1957" width="0.6" height="15.0" fill="rgb(209,209,255)" rx="2" ry="2" />
<text  x="18.79" y="1967.5" ></text>
</g>
<g >
<title>pdumper_set_marked_impl (2,750 samples, 0.15%; +0.00%)</title><rect x="1183.7" y="2053" width="1.8" height="15.0" fill="rgb(255,209,209)" rx="2" ry="2" />
<text  x="1186.73" y="2063.5" ></text>
</g>
<g >
<title>record_in_backtrace (4,964 samples, 0.27%; -0.27%)</title><rect x="1185.6" y="2053" width="3.2" height="15.0" fill="rgb(172,172,255)" rx="2" ry="2" />
<text  x="1188.58" y="2063.5" ></text>
</g>
<g >
<title>[unknown] (2,643 samples, 0.14%; 0.00%)</title><rect x="848.4" y="501" width="1.7" height="15.0" fill="rgb(255,255,255)" rx="2" ry="2" />
<text  x="851.40" y="511.5" ></text>
</g>
<g >
<title>mark_maybe_pointer (216 samples, 0.01%; -0.00%)</title><rect x="873.4" y="2037" width="0.1" height="15.0" fill="rgb(209,209,255)" rx="2" ry="2" />
<text  x="876.37" y="2047.5" ></text>
</g>
<g >
<title>vectorlike_nbytes (1,017 samples, 0.06%; -0.00%)</title><rect x="973.9" y="2037" width="0.7" height="15.0" fill="rgb(209,209,255)" rx="2" ry="2" />
<text  x="976.90" y="2047.5" ></text>
</g>
<g >
<title>[unknown] (2,696 samples, 0.15%; 0.00%)</title><rect x="848.4" y="677" width="1.7" height="15.0" fill="rgb(255,255,255)" rx="2" ry="2" />
<text  x="851.40" y="687.5" ></text>
</g>
<g >
<title>unlink_chunk.constprop.0 (916 samples, 0.05%; -0.01%)</title><rect x="1189.2" y="2053" width="0.6" height="15.0" fill="rgb(209,209,255)" rx="2" ry="2" />
<text  x="1192.18" y="2063.5" ></text>
</g>
<g >
<title>[unknown] (2,982 samples, 0.16%; 0.00%)</title><rect x="848.4" y="1461" width="1.9" height="15.0" fill="rgb(255,255,255)" rx="2" ry="2" />
<text  x="851.40" y="1471.5" ></text>
</g>
<g >
<title>[unknown] (2,822 samples, 0.15%; 0.00%)</title><rect x="848.4" y="1061" width="1.8" height="15.0" fill="rgb(255,255,255)" rx="2" ry="2" />
<text  x="851.40" y="1071.5" ></text>
</g>
<g >
<title>mark_compiled (1,546 samples, 0.08%; +0.00%)</title><rect x="872.2" y="2037" width="0.9" height="15.0" fill="rgb(255,209,209)" rx="2" ry="2" />
<text  x="875.16" y="2047.5" ></text>
</g>
<g >
<title>realloc (178 samples, 0.01%; +0.00%)</title><rect x="851.1" y="1941" width="0.1" height="15.0" fill="rgb(255,209,209)" rx="2" ry="2" />
<text  x="854.09" y="1951.5" ></text>
</g>
<g >
<title>[unknown] (2,572 samples, 0.14%; 0.00%)</title><rect x="848.4" y="245" width="1.6" height="15.0" fill="rgb(255,255,255)" rx="2" ry="2" />
<text  x="851.40" y="255.5" ></text>
</g>
<g >
<title>unlink_chunk.constprop.0 (407 samples, 0.02%; +0.00%)</title><rect x="973.6" y="2037" width="0.3" height="15.0" fill="rgb(255,209,209)" rx="2" ry="2" />
<text  x="976.64" y="2047.5" ></text>
</g>
<g >
<title>[unknown] (2,584 samples, 0.14%; 0.00%)</title><rect x="848.4" y="277" width="1.6" height="15.0" fill="rgb(255,255,255)" rx="2" ry="2" />
<text  x="851.40" y="287.5" ></text>
</g>
<g >
<title>[unknown] (2,559 samples, 0.14%; 0.00%)</title><rect x="848.4" y="213" width="1.6" height="15.0" fill="rgb(255,255,255)" rx="2" ry="2" />
<text  x="851.40" y="223.5" ></text>
</g>
<g >
<title>make_float (2,640 samples, 0.14%; +0.00%)</title><rect x="809.8" y="2037" width="1.7" height="15.0" fill="rgb(255,209,209)" rx="2" ry="2" />
<text  x="812.85" y="2047.5" ></text>
</g>
<g >
<title>sweep_vectors (2,977 samples, 0.16%; +0.00%)</title><rect x="971.7" y="2037" width="1.9" height="15.0" fill="rgb(255,209,209)" rx="2" ry="2" />
<text  x="974.73" y="2047.5" ></text>
</g>
<g >
<title>[unknown] (2,529 samples, 0.14%; 0.00%)</title><rect x="848.4" y="117" width="1.6" height="15.0" fill="rgb(255,255,255)" rx="2" ry="2" />
<text  x="851.40" y="127.5" ></text>
</g>
<g >
<title>[unknown] (4,527 samples, 0.25%; 0.00%)</title><rect x="848.4" y="1973" width="2.9" height="15.0" fill="rgb(255,255,255)" rx="2" ry="2" />
<text  x="851.40" y="1983.5" ></text>
</g>
<g >
<title>sweep_conses (1,444 samples, 0.08%; -0.00%)</title><rect x="851.9" y="2021" width="0.9" height="15.0" fill="rgb(209,209,255)" rx="2" ry="2" />
<text  x="854.90" y="2031.5" ></text>
</g>
<g >
<title>[unknown] (2,608 samples, 0.14%; 0.00%)</title><rect x="848.4" y="357" width="1.7" height="15.0" fill="rgb(255,255,255)" rx="2" ry="2" />
<text  x="851.40" y="367.5" ></text>
</g>
<g >
<title>mark_maybe_pointer (285 samples, 0.02%; -0.00%)</title><rect x="1121.0" y="2053" width="0.2" height="15.0" fill="rgb(209,209,255)" rx="2" ry="2" />
<text  x="1124.02" y="2063.5" ></text>
</g>
<g >
<title>__gmpz_swap (496 samples, 0.03%; -0.01%)</title><rect x="855.5" y="2037" width="0.3" height="15.0" fill="rgb(209,209,255)" rx="2" ry="2" />
<text  x="858.53" y="2047.5" ></text>
</g>
<g >
<title>eval_sub (950 samples, 0.05%; -0.00%)</title><rect x="15.8" y="1989" width="0.6" height="15.0" fill="rgb(209,209,255)" rx="2" ry="2" />
<text  x="18.78" y="1999.5" ></text>
</g>
<g >
<title>exec_byte_code (4,891 samples, 0.27%; +0.10%)</title><rect x="1082.0" y="2053" width="3.2" height="15.0" fill="rgb(255,195,195)" rx="2" ry="2" />
<text  x="1085.04" y="2063.5" ></text>
</g>
<g >
<title>[unknown] (3,634 samples, 0.20%; 0.00%)</title><rect x="848.4" y="1829" width="2.3" height="15.0" fill="rgb(255,255,255)" rx="2" ry="2" />
<text  x="851.40" y="1839.5" ></text>
</g>
<g >
<title>[unknown] (2,842 samples, 0.15%; 0.00%)</title><rect x="848.4" y="1093" width="1.8" height="15.0" fill="rgb(255,255,255)" rx="2" ry="2" />
<text  x="851.40" y="1103.5" ></text>
</g>
<g >
<title>[unknown] (2,898 samples, 0.16%; 0.00%)</title><rect x="848.4" y="1157" width="1.8" height="15.0" fill="rgb(255,255,255)" rx="2" ry="2" />
<text  x="851.40" y="1167.5" ></text>
</g>
<g >
<title>[unknown] (2,767 samples, 0.15%; 0.00%)</title><rect x="848.4" y="933" width="1.8" height="15.0" fill="rgb(255,255,255)" rx="2" ry="2" />
<text  x="851.40" y="943.5" ></text>
</g>
<g >
<title>__gmpn_div_q (337 samples, 0.02%; +0.00%)</title><rect x="963.2" y="2005" width="0.2" height="15.0" fill="rgb(255,209,209)" rx="2" ry="2" />
<text  x="966.19" y="2015.5" ></text>
</g>
<g >
<title>grow_specpdl (2,327 samples, 0.13%; -0.00%)</title><rect x="1106.9" y="2053" width="1.5" height="15.0" fill="rgb(209,209,255)" rx="2" ry="2" />
<text  x="1109.94" y="2063.5" ></text>
</g>
<g >
<title>mark_object (122,168 samples, 6.62%; +0.05%)</title><rect x="873.5" y="2037" width="78.1" height="15.0" fill="rgb(255,202,202)" rx="2" ry="2" />
<text  x="876.50" y="2047.5" >mark_object</text>
</g>
<g >
<title>[unknown] (2,727 samples, 0.15%; 0.00%)</title><rect x="848.4" y="805" width="1.7" height="15.0" fill="rgb(255,255,255)" rx="2" ry="2" />
<text  x="851.40" y="815.5" ></text>
</g>
<g >
<title>__memmove_avx_unaligned_erms (21,669 samples, 1.17%; +0.03%)</title><rect x="85.0" y="2037" width="13.8" height="15.0" fill="rgb(255,205,205)" rx="2" ry="2" />
<text  x="87.99" y="2047.5" ></text>
</g>
<g >
<title>allocate_vectorlike (724 samples, 0.04%; +0.00%)</title><rect x="862.6" y="2037" width="0.5" height="15.0" fill="rgb(255,209,209)" rx="2" ry="2" />
<text  x="865.64" y="2047.5" ></text>
</g>
<g >
<title>mark_char_table (7,314 samples, 0.40%; -0.00%)</title><rect x="1115.8" y="2053" width="4.7" height="15.0" fill="rgb(209,209,255)" rx="2" ry="2" />
<text  x="1118.80" y="2063.5" ></text>
</g>
<g >
<title>Fmemq (1,071 samples, 0.06%; -0.00%)</title><rect x="71.7" y="2037" width="0.6" height="15.0" fill="rgb(209,209,255)" rx="2" ry="2" />
<text  x="74.66" y="2047.5" ></text>
</g>
<g >
<title>check_number_coerce_marker (46,357 samples, 2.51%; +0.01%)</title><rect x="1052.2" y="2053" width="29.7" height="15.0" fill="rgb(255,208,208)" rx="2" ry="2" />
<text  x="1055.21" y="2063.5" >ch..</text>
</g>
<g >
<title>[unknown] (2,479 samples, 0.13%; 0.00%)</title><rect x="848.4" y="53" width="1.6" height="15.0" fill="rgb(255,255,255)" rx="2" ry="2" />
<text  x="851.40" y="63.5" ></text>
</g>
<g >
<title>__gmpz_sizeinbase (2,594 samples, 0.14%; +0.01%)</title><rect x="83.3" y="2037" width="1.6" height="15.0" fill="rgb(255,208,208)" rx="2" ry="2" />
<text  x="86.28" y="2047.5" ></text>
</g>
<g >
<title>funcall_lambda (30,503 samples, 1.65%; -0.03%)</title><rect x="1087.0" y="2053" width="19.5" height="15.0" fill="rgb(205,205,255)" rx="2" ry="2" />
<text  x="1090.04" y="2063.5" ></text>
</g>
<g >
<title>[unknown] (2,994 samples, 0.16%; 0.00%)</title><rect x="848.4" y="1509" width="1.9" height="15.0" fill="rgb(255,255,255)" rx="2" ry="2" />
<text  x="851.40" y="1519.5" ></text>
</g>
</g>
</svg>
